T_0001mp3:6bd2ca078c907cad06c5ea268ad37add:passed:20040825-175700:0.12741247
T_0002aac:7fc8f87043931f15989b0338d452e2a1:passed:20040825-175700:0.113589769
T_0003ac3:d4a8cedfbdcd4e6343dc21ee4d3046ea:passed:20040825-175700:0.175484843
T_0004aacmp4:aa331bdfec2421c1eff6c1d652f2b5ea:passed:20040825-175700:0.130945211
T_0005flac:e4eb16d98caf5d6ac124d76798e494fb:passed:20040825-175700:0.124415853
T_0006oggflac:81dbd782fa1411bf1edd9f3ad3c35651:passed:20040825-175700:0.107798744
T_0007oggvorbis:64db543738d786560e21a8b986014297:passed:20040825-175700:0.134631323
T_0008avi_divx3_mp3:499343afe153be4cd75709b0759e1e80:passed:20040825-175700:0.250149194
T_0009realvideo_3:69608e2695d547b5f7c94cfd1e4a2864:passed:20040825-175700:0.269130774
T_0010realvideo_4:bd4a81c31dae09febf44fc391564f9d8:passed:20040825-175700:0.133965049
T_0011srt:dc7c64a464384ff98420f2eca5e87e8b:passed:20040825-175700:0.05079915
T_0012ssa:cf3a0fd814828f0c4d3d4e55b899de67:passed:20040825-175700:0.050361156
T_0013vobsubs:fe2cd4e83a1e98570c4b04182d9a61d2:passed:20040825-175700:0.071757683
T_0014splitting_by_size:1e44c826ba3e168b6d92d5672ed45881-c5ac6089a0cb665f4d1eec164a30b670:passed:20040825-175700:0.235009194
T_0015splitting_by_time:346f4cc980ea4bf1adfb1b92e0f3a2d0-1addaddd3747e1821806d50485382b21:passed:20040825-175700:0.23243534
T_0016cuesheet:8a2bde564a24d64d4d21b881042e5bb4:passed:20040825-175700:0.067347546
T_0017chapters:01e84c07c7a85b189b1294860afbcb27-951dfd9073d9a684c02de5be1ccf319f:passed:20040825-175700:0.121566766
T_0018attachments:27c7b680b1eebef7a01f84532c0528af-18859a707075e71340850304e774a1aa:passed:20040825-175700:0.11554183
T_0019attachments2:57d916eb5e5ff2235c06101bbc2a435f-c106f6cf3965db05e2567e441d798866-57d916eb5e5ff2235c06101bbc2a435f-b9671878e9a433930c23e6112d221420:passed:20040825-175700:0.505896689
T_0020languages:7511834711968174abc375ab099e885c:passed:20040825-234208:0.89810434
T_0021aspect_ratio:a000004c401249d4ca5c2e64eb53365c-abf7d828596e52b8abf8a517b6ed2bd7:passed:20040825-234244:0.283430669
T_0022display_dimensions:cc649b4a829a51c6ec16c3de58bea14e:passed:20040825-234339:0.145136456
T_0023no_x:903d5efdd9e54e9df3174b67e00b4194-42edab8e47ceda20bcc6d8b503c86471-41b0860430c7157b0362d9c8f50589a5:passed:20040825-234343:1.912465603
T_0024sync_mp3:bf3e38e468d3beb546b8a49879fd1216-544cd45145e588a4b9edc6d1ade1adc0:passed:20040825-234344:0.259152907
T_0025sync_vorbis:7aaf65692b4f949956aa1f33674bbdb6-ac2b7fcaf75c73f3dcc14c07f9d7e913:passed:20040825-234344:0.270892967
T_0026sync_pcm:0c6db8dd0b03ea4744de64ed4f7c0a9c-393b2289462369a7084c2aaf6c7a1150:passed:20040825-234346:0.320633569
T_0027default_track:bf227f7ae719959739656eb781bbec74:passed:20040825-234348:0.836745949
T_0028compression:06491dcad4ab464e39cae50ebb69d816:passed:20040825-234348:0.076834142
T_0029link:all ok:passed:20040825-235039:1.392578512
T_0032cues:6bf9b5dc6f8afbbe7112c4ca736f2c33:passed:20040825-235040:0.261608742
T_0033timecode_scale:e8fe70eac4a197004756093433c30e01-e0797af65427a7876c593fa0d0399705-e8fe70eac4a197004756093433c30e01-e0797af65427a7876c593fa0d0399705:passed:20040825-235040:0.695779058
T_0034ac3misdetected_as_mp2:d2213d330ffa9f5467ebf65c9511358d:passed:20040920-100447:0.083646033
T_0035X_vfw_video:b633b965d60e5d31c7601dda8e2b6379:passed:20040920-185358:0.217530982
T_0036X_mp3:b3bb67d316e20da12926d5c1d628f6e5:passed:20040920-190109:0.184677218
T_0037X_aac:66ccc4dde4eb9b3109b810b5a2be99ee:passed:20040920-190110:0.205856544
T_0038X_ac3:6ca341797c5f93e273c8502f4d6f4fba:passed:20040920-185449:0.203324348
T_0039X_flac:e0d2c003502fd5eddfc71f63d62b8072:passed:20040920-185252:0.192093091
T_0041X_mp2:a2b37e3016b664cf96f75fa27d23b997:passed:20040920-190645:0.183164209
T_0042X_vorbis:9d154345772ce7c701518869daf405b8:passed:20040920-190645:0.195227
T_0043X_wav:6a368be18ccaf3459b24056e6c2718f5:passed:20040920-190646:0.226918676
T_0044X_srt:e811bbfaa7fabc16d14310db3092dbe3:passed:20040920-190646:0.207347161
T_0045X_ssa:702cb49d23f4d1985471c1dc46053576:passed:20040920-190646:0.185816265
T_0046X_chapters:a9255d40de93e2731aaead0a746e582f:passed:20040920-192348:0.033557858
T_0047X_tags:26ad4ab0491d76d9fb6f57b4a4b35400:passed:20040920-192348:0.035348177
T_0048X_chapters_ogmstyle:b59877767b804d167790e5784fb260bb:passed:20040920-192349:0.034031671
T_0049ass:eff6621dadd84c2bd12e3eb5ff629a15:passed:20040929-113852:0.095091441
T_0050X_ass:6aeb4aef55511282630e9f0e69777c46-6aeb4aef55511282630e9f0e69777c46:passed:20040929-113852:0.160631456
T_0051ogm:96f4611e26e7aaacc359d8654066047f:passed:20071223-112225:0.297362512
T_0200mp2_from_mp4:ec4eadc8f0c37ffa18d31e0499303066:passed:20040917-185156:0.235721709
T_0201avc_from_mp4_with_par:ec19b6aa20e16a25e58c55b742a67c2d:passed:20050125-224528:0.143972279
T_0202avc_from_mp4_with_par_bframes:3ba980aee1563bbcc8ec813e3bd6e17c:passed:20050125-224635:0.118101336
T_0203wavpack_with_correctiondata:d572675ff8ae8e405cbc2823396bcb23:passed:20050201-094411:0.087001311
T_0204wavpack_without_correctiondata:73b178d9543b93e6e8c7aae249caa73e:passed:20050201-094414:0.055311627
T_0205X_cuesheets:3b00b00c7d185137e30d7e95e3123d33-b3bb67d316e20da12926d5c1d628f6e5:passed:20050210-211853:0.253313382
T_0206X_vobsub:93edcbea4729b197facd3048ee1445b8-f0b88ab55ffda1f9cc447a784829bcba-b4a3952ad77c8e9d48bf463ff5c88062-39e6f66ff3e0287735c4a577487de878-fe2cd4e83a1e98570c4b04182d9a61d2:passed:20050211-231728:0.181951902
T_0207segmentinfo:4985ed7c393923471322c4de29a9e521:passed:20050211-234856:0.12233022
T_0208cat_and_splitting:1e44c826ba3e168b6d92d5672ed45881-80d8b8da21634f56ff8bd6e386611ca1:passed:20050306-152640:0.431995005
T_0209ac3misdeetected_as_mpeges:88a407deb24b3c88707c3c6396c3f615:passed:20050315-092851:0.118181337
T_0210splitting_and_chapters:ba57971d3b26c2c15d893ce4726e76ea-08b9e44c97c7ca19f57b63f7b102b19a-1eb1e1bf53594e8d3261feeab335caec-42eb85984ce0d1a43a5225555c4149ff:passed:20050406-165104:0.499328912
T_0211bug_segfault_reading_mp4:8290c0b54146228126b91fac1ee1e094:passed:20050728-083402:0.374272825
T_0212ssa_attachments:58394ace05de9d4b2171dcf63c8e0374-9a5a5ed80808c9d448ca5b44b640d8aa-2c8ef428ff00aeea74ee10d12a3702b5-63703180da67852a7ecf01c118869ed8-3f272c0e6d437f34bc49d72d2ab6414c:passed:20050824-131320:0.275151142
T_0213mp4_broken_pixel_dimensions:f428073b3cf60233e0f54195c19b808b:passed:20050919-094831:0.157005275
T_0214one_frame_avi:0b11149448995b94f5c5063b64dff2ec:passed:20051004-192755:0.05424713
T_0215X_codec_extradata_avi:1778e405f7bd65231f0196ab71a6a521-74ac799ad899f703cbb6c6654e5f9f51:passed:20051004-194707:0.082421086
T_0216mp4_editlists:afbc5396cfe296820209169c9fa542fa:passed:20051118-191453:0.072006614
T_0217file_identification:f208b1fbb2ac831ad3dc275e3744bc06-a39d127472f5545c5ed2126e1a8dd722-0b06a922ad49d0da282c9d6ac9154f26-008c1e78c7bdae60662f429e2d8a3145-24ae5ca8a1fe5f834a4b67e16d60a3a0-30bd1e1781d00c5c3274164c6ff91370-45cc529fd19b08e5a0747eaf8dfb76fc-0e8d4394965ec2338e92e73c745011f9-f3b65a4fabe4aa0d02b37b7fb801cec6-4d3ff57b33f852b6986e3cb0f78437c7-1b39223923f4960da916296f6d9d933a-35bf6a9eb624dd1980d46c5fd53a19be-ca389d7ad7ae1cefc1c333dc40e25e12-d6bc41ba31b316b0b8b58200ae3a835a-9472e75f4d84c45a6a611bd9c42d523b-fed0f933a3c2705659931cd5020129ac-a06bbac438a53791c8b2f139b90ea5f2-95d5ab191a802e8d9e2471b4dace1890-1a46f74049631a60f214cedbdd82c296-e2459a3cb44e35e973a78d1387412f88-b396e0a31cc986cedccbdfc3e81efc25-78d7bada0260da13746cf471a21c8656:passed:20051209-180815:1.891180328
T_0218theora:a2f37cdafd1bc9acf71b48308a17e57f-a0e18297bd6e261d4c061838ee8c147a:passed:20060428-105054:0.595266516
T_0219srt_short_timecodes:c24157c88ccedd8b04f0ea36a4c52af4:passed:20060926-112658:0.112933985
T_0220ass_with_comments_at_start:a97d84683e2261a2b50861741d9fe52e:passed:20060926-120101:0.182545216
T_0221aac_lc_misdetected_as_sbr:073d27884dcbf328631697648dd9ca8f:passed:20061103-174221:0.061594392
T_0222stereo_mode:bf6b66be75577479577bdc04b1d78bed-d1807966956ee77e3748692a9942560f-d1807966956ee77e3748692a9942560f-78e407898dad95b2cf3792e0a0623bf8:passed:20061107-092251:1.508843676
T_0223ra_cook_keyframes:7f3b523753822112bfbcf3b1f67ab220:passed:20061228-150947:1.093019177
T_0224dts:509d4b8d88b08baf37d739c2320cd388-b9a5da3305f3485aa38c1a998db80842:passed:20070206-174735:0.303554128
T_0225dts_in_wav:1c0fff9600ca6ae7a8c4c31996c7e91c-70bc4510ae6f1bfa05dec50daa5d6bec:passed:20070206-174726:1.047792881
T_0226h264:91640ac9af509c8fb6f849c756ec9b2a:passed:20070208-103558:1.086258227
T_0227h264_with_garbage:53e99ed300d1f6073105f3d8c9e0ad69:passed:20070208-103656:0.992183393
T_0228h264_no_idr_slices:c8db93fd2099fc350951d65acdddaa3f:passed:20070426-103130:0.471303045
T_0229rav3_in_rm:7b1405dfc86390a2d2434eababf021e1:passed:20070619-220659:0.062584468
T_0231X_ac3_header_removal:6ca341797c5f93e273c8502f4d6f4fba:passed:20070623-111240:0.092211804
T_0232h264_changing_sps_pps:762f79e47dda6fc4df523358539290d8:passed:20070815-211934:0.667516371
T_0233srt_with_coordinates:f9faf4310e65efb2076482ec77d864ea:passed:20070819-203105:0.100179821
T_0234avi_aac_codecid_0x706d:b2e14c675d43879f45cd8af8e5da9986:passed:20080223-174500:0.378911082
T_0235wav_fmt_chunk_length:30ead91422ebcd0f29503165b1e775a7:passed:20080226-134540:0.275935866
T_0236ac3_in_mov:86fe07194e53ad10b22261b0f167e2eb:passed:20080229-103912:0.267673437
T_0237ac3_in_wav_iec61937_mode:d4a8cedfbdcd4e6343dc21ee4d3046ea:passed:20080229-152103:0.25640574
T_0238ac3_in_wav_acm_mode:98edf6fb4e60175e575b0a57752d5e9a:passed:20080229-152339:0.070878917
T_0239aac_with_id3_tags:91a1a78d77f566a088869f4ba136d1a5:passed:20080309-170151:0.197850106
T_0240dts_hd:8c92d0a89ef82978c194ef08b829a660-291ceedcd0e5c1dc65c1ab638fbcf923:passed:20080309-170749:0.359067525
T_0241ac3_with_id3_tags:d4a8cedfbdcd4e6343dc21ee4d3046ea:passed:20080309-183547:0.178941554
T_0242ogm_with_chapters:5a55eac4e3b61a5be4a002bc09855bf3:passed:20080420-204932:0.058593694
T_0243avi_with_audio_garbage:af16e796cd5d5f348014f5415fb880a6:passed:20080913-185346:0.117956125
T_0244iconv_missing_character:3ab9d1be65e803ff5c278dd3d218f8e9:passed:20081004-213713:0.211021353
T_0245srt_timecode_formats:05c9ee9ccdc241a13c8f63fe1caae68b-05c9ee9ccdc241a13c8f63fe1caae68b:passed:20081202-141604:0.262704778
T_0246theora_pixel_aspect_ratio:cfe9eb4fa1480b53278ad453323a423e:passed:20081205-174857:0.089639088
T_0247attachment_selection:dc5a58a844552a099181500e7226efb5-9d67c073d2535b06940cd0ac1f30103c-a48b542cb347bdda51e8594b9a1debb4-1a98fd85cba10fc4f2f81bd6158af8c1+756ebed0be6eb20e8e6c8c6156a89634:passed:20090228-191612:0.248901767
T_0248mpeg2:d02945a591d1e55b05a07b31192fb907-9006451d1836d9518d0edc302957315b:passed:20090531-132819:1.828845941
T_0249mpeg2_no_codecprivate:3c662a79a16f9da50b4e9d07d3dd2d85:passed:20090531-132821:0.804034756
T_0250tag_selection:4e9534222b803e236377cafa95acb058-62ef21a57808eda6d99eb201dfd904c0-1a5cad8e7714cead1658b4ea2d023215-8684f02051e1a7b0a128221a60f560ba-c32c3228515253549a406c4cd9e4627d-c32c3228515253549a406c4cd9e4627d-44235f20b1dc329980619b3b1bc09cb0:passed:20090531-205640:1.734814209
T_0251vc1_truehd_eac3_from_evo:dddf515d1af70d37ba24026c682fb5aa:passed:20090606-220945:0.374443836
T_0252native_mpeg4:84084512c11735bc198d79daae37c80a:passed:20090620-163119:2.148476233
T_0254avi_with_subs:f6c9c7cc48c0cf18a61b268e6b433ea9-f6c9c7cc48c0cf18a61b268e6b433ea9-6eb358a43e48434a2e87ff149682dc06-2a022e6395855bf9ebaba3d3388d90f4-eca5d03f3ffd387019ff52090acf3f43:passed:20091025-104213:1.133544547
T_0255aspect_ratio_display_dimensions:0[4254x815-4254x815-1212x2424-1800x360-3600x360]1[3600x360-3600x360-1212x2424-1800x360-3600x360]2[7200x360-7200x360-1212x2424-1800x360-3600x360]:passed:20091025-164606:2.038096695
T_0256cropping_stereo_mode:0[S2-1-2-3-4]1[S1-5-6-7-8]:passed:20091025-204854:0.404846044
T_0257theora_v1_1:47bf30f367325e3763fca8ba68712521-16d953bc742be28b544ca01a5ec52fc4:passed:20091217-134109:1.056685804
T_0258srt_negative_timecodes:ff9618667b951096de9b7cd886a89e30:passed:20091226-220350:0.234074879
T_0259mp4_chapters_text_trak:8f297b3d744e468cb7b8ecae3e853727-488034436d798423f10aa98602ac510b:passed:20091230-221546:2.548017548
T_0260version_numbers:ok:passed:20100120-131720:0.151644954
T_0261line_endings_in_text_files:ef2e3a9814885ba38f8cd90a27f4c136-ef2e3a9814885ba38f8cd90a27f4c136-ef2e3a9814885ba38f8cd90a27f4c136:passed:20100315-151719:0.256349271
T_0262level1_with_size_0:906d163c2a688f5ac1e34e3d9bf45c3f:passed:20100407-131350:0.049863624
T_0263ass_missing_text_in_format:bd95477c9e13954a02220c5e306cff51-a61282e47789865563878c33b90689c7:passed:20100411-181436:0.08481106
T_0264avc_es_from_lavf_with_native_codecid:41dbd5512bfa75645b788b8e03a16a12:passed:20100427-123025:0.113031166
T_0265mkvinfo_clusters_with_unknown_size:850e2df249cf836ef9777c1f1e915518:passed:20100522-213708:0.070457035
T_0266mkvmerge_clusters_with_unknown_size:64d3da8efe80e10ba0cf82b067a39e4d:passed:20100523-154308:0.513856747
T_0267mkvextract_clusters_with_unknown_size:b994ef83db70b5193696121cf1399adf:passed:20100523-154920:0.151236551
T_0268X_vp8:4c87a179863ff43cf03cea5fe783f2a0:passed:20100527-140446:0.146660573
T_0269X_vp8_without_default_duration:b856286cdf487bbe617676516e786cd1:passed:20100527-143214:0.347118895
T_0270ivf:54b1045ce698ae1ecc0e287055d4742e-39c3d9d9f0ceaf349d4c32823718de47-791cd405ca0418f3ac3bdc251f050f4f:passed:20100527-145644:0.589767944
T_0271ogg_flac_1_1_1:b73a27186b0f9cb1173a74e0d71a6fee:passed:20100528-150526:0.059022557
T_0272dirac:4c3ceeeedf06a34c505e30128711a79c:passed:20100530-144232:0.242360317
T_0273pgssup:deb27c993d61fd076a704ca77807f97a-deb27c993d61fd076a704ca77807f97a-dbba8798fb51a54a748a0a5a7a85f452:passed:20100618-122332:0.213283366
T_0274h264_in_nalus_in_avi:42f80b624b5c7679088ddccf222a5881:passed:20100629-090725:0.048849118
T_0275srt_mixed_eol_styles:280a28371bdbc26066c8168f46a4a36b:passed:20100706-090848:0.133304466
T_0276h264_without_nalus_in_avi:bb0975ed8ffa005b90d328345811968d:passed:20100706-224102:0.173656992
T_0277display_dimensions_fixing_aspect_ratio_usage:c4b24e56cf45566fddceba4e41e34dfa-3dcd73fc6a27d9777d14a3279725b394-cc47384b587820e218a254258f0aa337:passed:20100718-201627:0.96614962
T_0278turning_off_compression:9cc84c72b68563aedb3df7e0c9a21913-9cc84c72b68563aedb3df7e0c9a21913:passed:20100728-121842:0.729629648
T_0279packet_queue_not_empty_ivf:8f271391df39f5b61cf6e0b7ea584432:passed:20100805-230439:0.074363649
T_0280replace_one_byte_with_ebmlvoid:534413c422857270cad77d5ac0bc8500:passed:20100824-201249:0.179358227
T_0281idr_after_non_idr_not_recognized:e426e86c39b5c4a5e64416a769e17dea:passed:20100828-194029:0.202062261
T_0282mkvextract_error_on_non_existing_file:true:passed:20100901-230139:0.038224395
T_0283no_video_on_avi:6bd2ca078c907cad06c5ea268ad37add:passed:20100919-111902:0.13081448
T_0284merging_chapter_editions_when_appending:d8974c5520fa722da70e7c8af270b695:passed:20100919-234941:0.882726381
T_0285h264_misdetected_as_mp3:fe422b75bbb2fee343df9f3c4ab0e1ac:passed:20101031-105119:0.062295026
T_0286vp8_in_ogg:9feea8d2af5a4f52b9b579cb4bbb1c53:passed:20101222-113225:1.930146299
T_0287mkvextract_exit_codes:2-2-2-2-2-2:passed:20101222-120655:0.249656191
T_0288identify_files_by_amg:26ab0db90d72e28ad0ba1e22ee510510:passed:20110308-151817:0.098896233
T_0289wav_unsupported_formattag:3:passed:20110314-133958:0.039715004
T_0290seven_bytes_aac_codec_data:f93e53ccf078d50d8e137ceef2b411f0:passed:20110415-123546:0.339085207
T_0291waveformatextensible:wav-avi:passed:20110415-124159:0.132232099
T_0292avi_aac_706d_privsize_huge:ae17c081c364a06de9e5eaf9eea670de:passed:20110422-152313:0.111661929
T_0293aac_adif_misdetected_as_video:3:passed:20110426-091956:0.038487756
T_0294vobsub_negative_delay:bb7dcf6d846b91548b3cad5aea40d6e9:passed:20110523-204847:1.82183818
T_0295vc1_rederiving_frame_types:64165ce5e5cd444137cfe27d440eebf7-93823757bf6d42cd2ede8cb4d21185fd:passed:20110525-205715:1.423762695
T_0296video_frames_duration_0:0057c7d98dad16d4ef5c5d36305a3fed:passed:20110709-143914:0.29191651
T_0297mpeg_transport_streams:6b85364e4ece0f396d4b62e78351464f-cd15ec13b8ffcb56b13f686361e2e184:passed:20110913-112636:1.717430515
T_0298ts_language:+eng+eng+eng+chi:passed:20110915-221140:0.04922838
T_0299ts_ghost_entries_in_pmt:0_video_AVC_H.264_MPEG_4p10_5500_1440x1080/1_subtitles_SubRip_SRT_eng_5503/2_subtitles_DVBSUB_eng_5504/3_audio_AC_3_eng_5501_2_48000:passed:20110917-004553:0.069267428
T_0300ts_dts_duplicate_timestamps:68e08ee4e5889667baf2fd53a10173b7:passed:20110918-154508:0.327563709
T_0301ts_pgssub:b7d38f035c1c9653c880deba33f8a5ee:passed:20110918-154732:0.269278857
T_0302pat_pmt_only_once:201834a619bce0d3bdf3405d5d0d98ed:passed:20110927-222121:0.158995945
T_0303mpeg_ts_eac3_pmt_descriptor_tag_0x7a:0_video_AVC_H.264_MPEG_4p10_220_1920x1080/1_audio_E_AC_3_qaa_231_6_48000/2_audio_E_AC_3_fre_230_2_48000/3_subtitles_DVBSUB_fre_240:passed:20111008-150823:0.059979482
T_0304eac3_pes_private_but_no_pmt_descriptor_tag:3e12bfe1e54c2b759821e1d2c04924a3:passed:20111009-113137:0.558107617
T_0305ui_locale_en_US:23026ac2ed9767541e89f2261bcf8b60-0136434e2e22ebcc806ee944cdd2b853:passed:20111016-192531:0.080941467
T_0306ui_locale_de_DE:5c2281373b0f5d9d7145cca6b2391db7-fe29d5dd8da942a9deb4aac92b2f0514:passed:20111016-192531:0.077156564
T_0307ui_locale_es_ES:3f230a5da62a4650a8874bde6cb3c0e7-343c6efff52830d0484900df270904fb:passed:20111016-192531:0.081922783
T_0308ui_locale_fr_FR:b766048d8d59cbd160a7218ea76873bb-8f926266b31c591810d92b84e2bbaa81:passed:20111016-192531:0.08508895
T_0309ui_locale_it_IT:a668340c643c0975e8df7977ffbdacde-77b6e7e8c32e689260f73dc7e0a2295f:passed:20111016-192531:0.07808351
T_0310ui_locale_ja_JP:bbd7198ee176df0a36ae6818471e4204-77e6f10efd219fb9ae9e79254cee32b6:passed:20111016-192531:0.08820715
T_0311ui_locale_lt_LT:23026ac2ed9767541e89f2261bcf8b60-0136434e2e22ebcc806ee944cdd2b853:passed:20111016-192531:0.075947337
T_0312ui_locale_nl_NL:df36526d5fccc2757166fc6cf2455060-82da9222562a7c5746bf76ec6ae82c1e:passed:20111016-192532:0.07276167
T_0313ui_locale_ru_RU:987e31110c77e62c592ace488c4d196c-4fc9b34008f1904490a9deb33c9666a2:passed:20111016-192531:0.082423426
T_0314ui_locale_tr_TR:6830d3427e56ec768545091fae78e1c8-bb9429ad44d4aaa0b62095eb9d114145:passed:20111016-192530:0.078641054
T_0315ui_locale_uk_UA:2ebc5b0a91b22727c89c8c64776fe851-4fc9b34008f1904490a9deb33c9666a2:passed:20111016-192532:0.081856623
T_0316ui_locale_zh_CN:0c7cafa82140063d23fd51941bfe16b1-399cd00f7f8a16f553c448c97b560a70:passed:20111016-192532:0.093747002
T_0317ui_locale_zh_TW:63e6d6c33f4795939f1b28a5f7fdfdc6-7951e32550f6b30fb561b63f03c818dd:passed:20111016-192531:0.077238066
T_0318ui_locale_invalid:ok:passed:20111016-192531:0.030997723
T_0319wav_with_pcm_detected_as_dts:1e4cdd3ae365a960f78d263df1d91609:passed:20111016-224416:0.055659719
T_0320ts_aac:75fd9bc84db42adf8422cbe7526b207e:passed:20111022-140411:0.177593776
T_0321vc1_without_markers:090ebd841290219952bc742d3af25be4:passed:20111104-003839:0.314819754
T_0322propedit_track_headers:785209f2dc35ad6177bea2ca6e43198f-5a41a18fe2b32f4fd1d7ab6f589b69a5-a69ea7d9d0497c69525bedb96a1ed16a-46a62e98b3c85112bfce3a463446d2e1-2a01b584145b388d79d3c2a45b26de17:passed:20111203-152145:1.270258132
T_0323propedit_segment_info:785209f2dc35ad6177bea2ca6e43198f-0baf1cb46e7d365580b51aa4452551d6-d6cd21681b8544aa730744f128d46fd7:passed:20111203-152845:0.649668247
T_0324propedit_chapters:785209f2dc35ad6177bea2ca6e43198f-a9255d40de93e2731aaead0a746e582f-5b1e9368f759a811a73dd79ce3ccce85-9ec8b77c5b0e9da31d6af9450a85b23b-37678bf46f2f2c2028ea8ece4c72618c-a80d32b492b377bc5aad4544371b8aa5-884d4c964b21cdbe52ea4c3dc2e5fc86-719f8fb146bf6a2c75a8f60aa2b07ed8-5aa640f146966af8b53456ddfbb999a7-d41d8cd98f00b204e9800998ecf8427e:passed:20111203-154502:1.466618999
T_0325propedit_tags:785209f2dc35ad6177bea2ca6e43198f-26ad4ab0491d76d9fb6f57b4a4b35400-f314c4948ee7e100d8146dd6c245bb50-82b6204a7a40eb04e02a39c12701bc78-f314c4948ee7e100d8146dd6c245bb50-82b6204a7a40eb04e02a39c12701bc78-309492d70041c0951917cc2cd259025c-a0e90a69cbf7c146e9f57856fa73a7c9-359db5672e277330516645805538e063-ab92f663ade7637d70a550031094c332-359db5672e277330516645805538e063-ab92f663ade7637d70a550031094c332-13716ad639d7cbc0c0658f24e8eb9e61-2d07c984fa03e661df7d8454125993f0-36c99a98a4e96259c8f24fb56387a655-d41d8cd98f00b204e9800998ecf8427e:passed:20111203-160727:2.590156297
T_0326mpeg_ps_mpeg_audio_layer4:96dc2c27c64f55f4bf78f727e525dfc3:passed:20111207-224511:0.39390451
T_0327vp8_frame_type:e90035a6cba85afad9332989a20e8314:passed:20111207-233304:0.122927824
T_0328dts_detected_as_ac3:05e0ed212b1634d1c0eefc30ad82371b:passed:20111229-192324:0.072298647
T_0329X_timecodes_v2:51d1e61178c7fa2b654d1be71576113c-473bb854441388700e42ee8b4d21c61c-f531fa64a457eb3204e8f09235b039ed-646b73b730d4bd09d13a56bc861ee659-409743510ede469f8d2bf1a098ff36f8-473bb854441388700e42ee8b4d21c61c-4473fffbc0dec00c3955f861a6880b22-3b3c2e7c2470ca550acb1e913311daef-a80f23069cd692e2e8700a6729d6d290-c04e13b7e74a8d6ee694ea2cfba79009:passed:20120105-202451:3.588119713
T_0330dts_detection:2e392563c08dc8067ed76b2bfc349618:passed:20120107-210130:0.257467676
T_0331read_buffer_underflow:aea623d0e4e1762725d73469d5210cd9:passed:20120125-232902:0.272339965
T_0332eac3_misdetected_as_avc:8941b49cf758bbf984346839add68640:passed:20120131-145550:0.07302103
T_0333wavpack_with_correction:f4d71bb68cd55d372c53f3db6117ca03-e33897409384ca5fd8ed5e497f8c3883+37f802510b43b2ab4bd7d8356a7ac606-ok:passed:20120131-164845:0.229940485
T_0334mp4_audio_encoder_delay:a2f3561a5fe273ad24c399ac20b0767d:passed:20120206-100443:0.129324062
T_0335ui_locale_cs_CZ:71fab8df9e8e061badc87c06cf36f544-a37e1bdc2b0c026c2970c08841c5e4df:passed:20120206-191406:0.096605328
T_0336pgs_misdetected_as_dv:5d06a530451d6834661657d022fde221:passed:20120222-121642:0.067714619
T_0337vc1_es_sequence_header_not_at_start:674fd1f244bf975963cb19563da324d2:passed:20120222-140257:1.238629784
T_0338h264_width_height_pixl_format_non_420:6fd4ed8971de72dd168a573840072bf5-ok:passed:20120222-153143:0.258965326
T_0339eac3_dependent_frames:bdb3f342d9e3e6fbcee132004dcaff90:passed:20120226-133623:0.09002012
T_0340m2ts_interlaced_h264_timecode_every_second_frame:a1b1505da4b573b3ac165b8f26afbe6c:passed:20120304-163131:3.561128773
T_0341vob_interlaced_mpeg2:5417ba7ab7c3b32b05edd12355ceb02b:passed:20120304-163313:1.461073085
T_0342m2ts_interlaced_h264_from_arte:6621c28b542bd52f6859fae8f80e696f:passed:20120304-165917:1.301366284
T_0343m2ts_interlaced_h264_match_of_the_day:937a0091d9625d4b56bc8717b0a2acea:passed:20120304-171453:0.88967291
T_0344microdvd_recognition:ok:passed:20120304-175209:0.042130248
T_0345flag_enabled:65a601248651ecce908c141e80ffc251-58a6a3c9b1437bab53e989c141600e1e:passed:20120304-181150:0.322629461
T_0347h264_misdetected_as_ac3:b55795c84e74ae2f91b5b939a60f1c1a:passed:20120305-160017:0.090632663
T_0348srt_negative_timecodes2:7a6f0607ec73a71f42caa6fbc134af5a:passed:20120307-115726:0.0984301
T_0349h264_interlaced_default_duration:24b8ca4b38a7756a38b1abc04572b1c4-632c3b4eecb6fe4d2b075e5ee88e03ba-632c3b4eecb6fe4d2b075e5ee88e03ba-9f88ff6e2f1146ca6acb1753d95206c2:passed:20120307-184849:0.961429392
T_0350h264_progressive_default_duration:fdc3ae39d4cbfc64945259a702f1c99e-5de30982f86e3f724bbdbb04b7beee7c-6d765111bca125cfc24e6005c3eedff5:passed:20120307-193604:0.804958611
T_0351h264_vfr_with_timecode_file:b826eaab8491deccfd1095e289dffb61-a748de21823d9f735cf71ff5d9a3ed75-a748de21823d9f735cf71ff5d9a3ed75-a748de21823d9f735cf71ff5d9a3ed75:passed:20120307-200246:2.586433563
T_0352timecode_scale_auto_libmatroska_assert:387842a4f59bcbbe9a46ba9f5c62a694-387842a4f59bcbbe9a46ba9f5c62a694:passed:20120308-083800:6.110334097
T_0353ac3-from-ts-with-missing-tcs-with-non-zero-first-tc::new:20120312-134345:0.0
T_0353ac3_from_ts_with_missing_tcs_with_non_zero_first_tc:452a00879d68faae00c129292cd3a7f1:passed:20120312-134456:0.192855875
T_0354h264_60000_1001i_def_duration_60000_1000:6be10cea81ae6bd303767aa161259847:passed:20120314-090846:0.068793095
T_0355chapters:40493144960296f007fdcdedaea540ce-32bd866635404530b5a6c406c27c367e-8990665b8195142be3d1cc292726f3bf-373232b8d94a8c5a47659b40e5bb5355-e95a606aa7d3fcab9e81f453753f2929-ok-ok-ok-ok-ok-ok-ok-ok-ok-ok-ok-ok-ok:passed:20120324-121601:0.982813659
T_0356tags:365b523263e71f22fc5891862d68b984-112d817f92d0a0f697c91b8fccbdd740-38faf5c7cce6ccb9724801fb9fd394b3-c10d48204f539117511a0944acda3ee1-35bf99d690ea65b1c024bf65c4d2c759-bfd101abe68ebebb4fe79926f568eb00-14d3c02f2f5e43337f5b3cd188add2ba-ok-ok-ok-ok-ok-ok-ok-ok-ok-ok-ok-ok-ok-ok:passed:20120324-121752:1.189312925
T_0357segment_info:8dcd28627250dfcfe3291e6ea002ceed-22afb0babefa9cc8d1e15b20ace6410a-ok-ok-ok-ok-ok-ok-ok:passed:20120324-122844:0.475716244
T_0358usf:987a78f08d6f573a7976f7fd119d99e5:passed:20120329-142144:0.05084588
T_0359split_parts:164210c4403ab0f1c801903f4654e8b5+cfbc6948a5fe4cd96938d29e64428ba2+ok-19695868454704a53a7de43c2dde9aab+ok-bad853623715769090b9b085b2ad3f5b+ok-ae9af05949a4456c2df4c54b9d06a6f9+bad01e7765cc8e3093817791b6cd5afa+dd0682186849e4204b60bf2b103f1060+b32076364e3a145dd3cb008690b4f268+80021e13bc44c551e00c645864a4f123+d21c53ac39110adf5831c64e57d007b2+d5b7147218ea1f2cd4f0d47926798f48+ok-5f313e0663c34e171a66524db0c511d9+ok-e78d99ad3ab2d9ff4f320a5295682cc7+ok:passed:20120331-133448:2.332499559
T_0360X_chapters_hex_format:8990665b8195142be3d1cc292726f3bf-aae3e24614c20119bb416301c3da5c7b:passed:20120404-152038:0.099092274
T_0361file_concatenation:VTS_01_2.VOB+VTS_01_3.VOB-a82b1ca68e6c0a7fe79dc1e619edc164-a82b1ca68e6c0a7fe79dc1e619edc164-b3060ba645eedd51a98b41a58559f55b-b3060ba645eedd51a98b41a58559f55b-b3060ba645eedd51a98b41a58559f55b-ba6be0fafe37624f345cbf609a21f692-9e1cb6eeada264ce87fb3aecd3e523e0-cc560dc114987531c29976e928b00263-cc560dc114987531c29976e928b00263-cc560dc114987531c29976e928b00263-cc560dc114987531c29976e928b00263-782de4f8d42aca7a62d24ac0393040d0-ee9c133d82c960280c0ab8068f4b7b73-6b85364e4ece0f396d4b62e78351464f-6b85364e4ece0f396d4b62e78351464f:passed:20120406-144928:3.327094415
T_0362xtr_avc:24b8ca4b38a7756a38b1abc04572b1c4-49ae33bdb1e43de90886bc2ac6410c35:passed:20120416-153515:0.322147148
T_0363srt_colon_decimal_separator:18d1a9684eb68f23dba24afb8cbde48c:passed:20120520-180625:0.044307942
T_0364qtmp4_track_with_empty_chunkmap_table:020d7538e11c449334aede5a9f57e88b:passed:20120605-223925:0.171457229
T_0365qtmp4_constant_sample_size:a54a1ee604a05eca9e6bc1b707660bb9-a489cde7379a2e883716301a5403c0d4:passed:20120605-230823:0.863321194
T_0366srt_with_space_in_timecode_arrow:b1a3af7e800ae1c49617607f098584cd:passed:20120801-132204:0.053007932
T_0367vob_80ms_delay_by_b_frames:f8cac9dff9a7fecd2ef73e8fde6f3a14-bfcd7ad6ad5d6909f037cfd092ac2efd:passed:20120801-182507:0.116235015
T_0368alac:7c2938cdd8fdbcb9e5449632f631e446-363cf32df88feb556f38de275d9e5f24-34fbd4aba7772f8f4c521c93e87b955c-11cf04c4d70c1310ea7f8ae6a73b36a3:passed:20120805-160128:0.437055964
T_0369mpeg_ts_timecode_overflow:883d2a74aa48e65929673c997d2609b2:passed:20120807-120810:1.172529145
T_0370propedit_attachments:abda859060934aeb3f9f7d3633a3960f-abda859060934aeb3f9f7d3633a3960f-67bbeb99777661fad5df8f8a3eccea89-abda859060934aeb3f9f7d3633a3960f-67bbeb99777661fad5df8f8a3eccea89-abda859060934aeb3f9f7d3633a3960f-67bbeb99777661fad5df8f8a3eccea89-abda859060934aeb3f9f7d3633a3960f-215bc56d3ee0ba01e97515d2bc1f2cc0-abda859060934aeb3f9f7d3633a3960f-2b78c21c8f8eddd64683f33ce84b9c07-abda859060934aeb3f9f7d3633a3960f-bee223696ce51e711a636d760c71e871-abda859060934aeb3f9f7d3633a3960f-3d12a4b43e35e12890c83bd5d0ee4f05-abda859060934aeb3f9f7d3633a3960f-d6adb809b2dc99a049364c059caf97b6-abda859060934aeb3f9f7d3633a3960f-dc9a482d329bd8834aa3efd10f8b5ca4-abda859060934aeb3f9f7d3633a3960f-c6f54011e982dcf87b82470b6b065aa1-abda859060934aeb3f9f7d3633a3960f-c6f54011e982dcf87b82470b6b065aa1-abda859060934aeb3f9f7d3633a3960f-7202a591e9cb9f07deff729470898e41-abda859060934aeb3f9f7d3633a3960f-13e0cf82892eac841b2b8e13d9622641-abda859060934aeb3f9f7d3633a3960f-adb06f85fb43f4821121fc5fd9c2b831-abda859060934aeb3f9f7d3633a3960f-adb06f85fb43f4821121fc5fd9c2b831-abda859060934aeb3f9f7d3633a3960f-97cee3cc67877dc6a4d097a4c9c2c322-abda859060934aeb3f9f7d3633a3960f-dbd05f1f16a52b5f0e0f16c4fd492436-abda859060934aeb3f9f7d3633a3960f-eab572ead4310aa1dbb62380b6346ef6-abda859060934aeb3f9f7d3633a3960f-d7b690a82d41f2c1f1154afbf66c1f3c-abda859060934aeb3f9f7d3633a3960f-5320fcd793d4b763830bce947282dc39-abda859060934aeb3f9f7d3633a3960f-622ad2454ca7cb3dfd1cd6ab7d12a203-abda859060934aeb3f9f7d3633a3960f-0d8830f9f090e89f23e9ca12df5993ff-abda859060934aeb3f9f7d3633a3960f-8b827b42353dca04d809c1cd7631c633:passed:20120902-110003:2.528270292
T_0371doc_and_read_version:4+2-4+2-4+2-4+2-4+2-4+1-4+1-4+1:passed:20120927-110447:2.276056215
T_0372ui_locale_eu_ES:cd0927f0c4248d14b97336097ee36c2e-8ef1b15c1dcfa5a888fab14cdeec0cda:passed:20120930-150340:0.070503686
T_0373reading_linked_seek_heads:cadc937c4f6c3c29b2505aea922b512c:passed:20121202-120608:0.286107675
T_0374extract_chapters_with_ebml_void:ok:passed:20121202-173807:0.064994592
T_0375keep_pcm_timecodes:99cb8e09914a043e193836c857c9ea61:passed:20121208-154352:0.211568368
T_0376append_empty_tracks:7b4ed0d10c1aed025a84baf75bae89f1-e5fa9e75de8359bae4913ed6c3f083d8-fbf720ba7cac4b605e1e229d29fd755a:passed:20121208-190510:2.061997946
T_0377mp3_skip_id3_properly:4f178b0bb3572cc5b6f13f2d04e0c836:passed:20121216-212310:0.064033007
T_0378deprecated_iso_639_2_codes:hrv+rum+srp-1c3e7fb32ca9cad4df9b9d572fb1c250:passed:20121217-171624:0.096870722
T_0379flv:2c2a3b568eaeea3573405ac8c1f3d042-ee46a546cf7556bbde697ca9b2d42530-ecf9d7d324eb5595760d0b8be9288943-ee46a546cf7556bbde697ca9b2d42530-809b398b5948b028118ea5b9a38bfef3-2c76dfe370f08a2a8078878bd15a9e33-6cca929e026b68ccfa64699d8149e06a-2c76dfe370f08a2a8078878bd15a9e33-d4fb88d24cd566c4715ec1e453fd145c-42ad1a20f5772e95df94244d09d1bdc9-158da97d795ed42bdd8ce73c9f34d7fd-42ad1a20f5772e95df94244d09d1bdc9:passed:20121223-134722:2.756877638
T_0380split_frames:16d900a2640d6ff4767dc12387310d11+65ea2897809db92502f4389d205bde75+ok-16d900a2640d6ff4767dc12387310d11+65ea2897809db92502f4389d205bde75+ok-16d900a2640d6ff4767dc12387310d11+65ea2897809db92502f4389d205bde75+ok:passed:20121223-232902:0.83181061
T_0381X_alac:34fbd4aba7772f8f4c521c93e87b955c-ed3dd47220947f8130974268f0af281d:passed:20121225-133740:0.107668003
T_0382split_chapters:4f3af363d36187c03508c5eb7d5f5952+46b4eaffae9140ebed30a29961c923c6+ok-1df86e3b61f2634397d88a192d2bd6fb+f2a8f1170c2f6ef6f5b7dfa3c958c02b+ok-7e107ee1f37bbe6358c8da6f51a838cb+74bf0eb6a4f728a21ad23ed58bb04c04+dde9b3fab37907108529aa6949ecd227+0b8637f6b49865db2950c083213efa84+d4549ee3f8466ceaa0667defbc3ecbaa+12168acb0eec6fee6e5efb2fa44620b7+2d17a5d42a5cd647a3f867783eb0c120+db5ec9cc1d73d87e8ab258511d177ed0+1b6ff84f2cf9fa758ae5f912d317dce0+19ce0d3bd695a5b747b3cb176a0f3920+3f4e89fcccf68518d9d4834bf2522eea+e87ec65f2bf632abb7998dbc7b831bc8+3c292154aaafc770f998178bed1c6788+57bcac0a1bded4a47c4924bfd1a59309+97523bbe833f4d1ec84253e35889ba21+81132a9dcb9e60ee0644e8028d18e8b0+0f840df6278c3e98b9c902490aa45e79+ok-ea4eb8b039abc2da19edf5dde54fc8cc+0167b09431a231b0a364985eee1df14a+241864c30ae5f2f74c475e5c9de69a58+f8d05c45dd7b76e8fa209a849d1c00c9+397d73d1b7612b866968a565d52b0a16+f68872c7d1389c72b1825045073a8b86+96122959a11cfd6b7aad82c25f3008dc+253cdcec8e53307458bcf9d9fbaab2d8+df814b31fd6acb807e77d2051be7f493+82e35b082b6c3fa3e149aed60f4631de+756c5bf009b4abf6d1a1305701c3cbaf+ff45a602cba3bf43a4fa7e580d24cda6+ae7e9f1d5d7984edbd5167ac48e5c031+d4ac5d5933021b0790efdd5c2a0f2cd4+6139290ff50efcad8832163a2e48ac25+7c59d964916f31f6f16644298222c5d2+ce393018c1d02437ddfad1a094bd17fb+ok:passed:20121227-202501:1.646075125
T_0383mp4_text_track_subtitles:892e490861d33697917546d48f77ba98:passed:20121228-231519:0.119739556
T_0384vobsub_in_mp4:0d8a97b0cb9cf08e7d623512d7eba9bd:passed:20130112-201109:0.944491122
T_0385split_parts_frames:164210c4403ab0f1c801903f4654e8b5+cfbc6948a5fe4cd96938d29e64428ba2+ok-7625a3bd172c73c20f86972719936013+ok-1557fbd6793d1d26ea19fce9e1bb1693+ok-88df5bd9ae633db50e2fbcdbc46ef037+ok-c026ea20a8997799cabbef0e60e1e524+ok:passed:20130114-224502:0.995170592
T_0386flv_vp6f:5095a84bb00fcb7782d1ca17e317bcc9:passed:20130121-223417:0.386809219
T_0387mp4_free_invalid_size:073d27884dcbf328631697648dd9ca8f:passed:20130216-003333:0.059110418
T_0388split_parts_and_chapters:2bf6dc359b9666cfc5a9de8c24342482-58c4d57fa5e1a25f869d1136fd8cd472-71a79277c61a6668fec33ffc61160eba:passed:20130216-203522:0.567824775
T_0389mpeg1_in_ps_misdetected_as_avc:fed399cf226aaacdf81b660b6d761f70:passed:20130224-132738:0.444866821
T_0390timecode_info_on_resync:BAD+BAD:passed:20130318-185621:0.268395002
T_0391fix_bitstream_frame_rate:ea0f4aac859fd788f8e77b301ef711c4:passed:20130329-114522:0.175326832
T_0392avi_audio_chunk_size_0:2dc45ca35b6a7c63a22d5e714aeec460:passed:20130331-134751:0.600121613
T_0393aac_audiospecificconfig_0channels:8512a36bbba939eaca914f4d11c8f65e:passed:20130413-214142:0.064833422
T_0394flv_negative_cts_offset:28e3c03251cd6f2f58921ea14c14bc89:passed:20130414-115331:0.301378675
T_0395remove_bitstream_ar_info:8d0044a3ba3fae2176520297d62e9a4a-ec19b6aa20e16a25e58c55b742a67c2d-faba4d2bb0018ee1b3512b6958672156-ff7fb43f1b5409eb329b8720f0d005f8:passed:20130427-171243:0.561364417
T_0396X_pcm_mono_16bit:95057ffa66cd4ca5faf764826159f4ce:passed:20130624-200214:0.067099745
T_0397mpeg_ts_broken_pes_track_detection:b8defeacb64a35fa0fda39d3ef840aca:passed:20130624-220549:0.316734536
T_0398flv1_no_pixel_dimensions:63888ed5fde0d1b168874b796c3c54f3:passed:20130624-225648:0.2104438
T_0399h264_append_and_default_duration:9556a9c2acc07795b28d94532ad7cfce:passed:20130627-195946:1.204478603
T_0400opus_experimental:835d643451b231f6086024c481919828:passed:20130703-213929:0.111009464
T_0401opus_experimental_remux:403001a72df67648f2a4151a20b64ffa:passed:20130703-213932:0.130261598
T_0402opus_output_order:5c776894d99598082c83d0156877a1fd:passed:20130705-115856:0.233979648
T_0403opus_remux_final:ff4adc5eb1e5361f0d11fee46a2ccfb6:passed:20130705-135811:0.120709181
T_0404opus_extraction:0aba264a50870d5cd62d8d12543898bd:passed:20130915-201931:0.065946799
T_0405packet_ordering_and_default_duration:3e6a2fcd3ad4c01be052d131f6b4be78:passed:20130916-211719:0.420985471
T_0406ogm_chapters_ansi_encoded:d5af66af2b582a7a73263d9fb155a40a-f3a8a07c49096e17a8533b23a415bbd7-ae3900019e6838b9ad59f94bdf19cc6b:passed:20131002-230255:0.42100596
T_0407empty_tag_and_chapter_files:error-error-error:passed:20131018-202312:0.15431096
T_0408utf_encodings_with_bom:dc7c64a464384ff98420f2eca5e87e8b-dc7c64a464384ff98420f2eca5e87e8b-dc7c64a464384ff98420f2eca5e87e8b-dc7c64a464384ff98420f2eca5e87e8b-dc7c64a464384ff98420f2eca5e87e8b:passed:20131019-155216:0.284834238
T_0409mux_vp9:bb675a3d494e0a37a77cfb1d36a083a9-62e4daf9adeeaca89719e529b36a7eb6:passed:20131019-195820:0.109288393
T_0410extract_vp9:e3978b967924105c21a43c5f617e9ac6:passed:20131019-200643:0.042153698
T_0411ui_locale_pt_PT:7378e1146862dcb96f11caa91d33c5cb-344b51e9ae6fe2d8ce60fef18ee0e7d1:passed:20131026-154124:0.08497827
T_0412ui_locale_pl_PL:5d790fb95cbc647fe5cec87e7618758a-93a2fd965d92b40b7ba59a037caca0b3:passed:20131026-154845:0.074276837
T_0413memory_resize_nonfree_smaller:25b1762e0cc5f27aa8475a1cc76eae2e:passed:20131102-115507:0.088756314
T_0414vc1_no_sequence_headers_before_key_frames:560fefa484c311001455077454e4d364:passed:20131115-164756:0.105180258
T_0415create_webm:1aedc2b6cf656cc233abfa198d6d8598-769bede68630ca187fb556198facce4f-097a185833ff9a31c130eb38d95a52c4-41a6f4d0e820dc8a6f27e09cdcc83bcf-AAC@ok-AC-3@ok-ALAC@ok-DivX@ok-H.264/AVC@ok-Dirac@ok-DTS@ok-FLV@ok-MP3@ok-MPEG1@ok-MPEG2@ok-PCM@ok-RV4@ok-SSA@ok-PGS@ok-SRT@ok-USF@ok-VC-1@ok-WavPack4@ok:passed:20131218-221942:1.604841422
T_0416dts_in_mp4:dd6de831abc961a0e0cf0bd751c305d9-251bed4610fe828af7bd7bd5c9d30299-319a5a44431e7de9dc1024d768e45310-true+false+true+true:passed:20131218-231435:0.827312801
T_0417mkvextract_tracks_at_end_of_file:b3bb67d316e20da12926d5c1d628f6e5:passed:20131229-122704:0.113007796
T_0418ac3_frame_size_0:04d9b842ec8f6e58e7ce6603956d359c:passed:20131230-233047:0.695019733
T_0419mov_pcm_sample_size_1_sample_table_empty:dd62e7a72b15a154186cbdcb7b07d082:passed:20140101-221519:0.144361411
T_0420matroska_attachment_no_fileuid:1d972a3f8e19bd7b00157de93651a2ef-552b6bfab098f531c54131dfc76eadaa-d656255457340062c91160fc962f249f:passed:20140111-200918:0.17171692
T_0421svq3_from_mov:6b9ec88f5c2e61964d46f6985e253fcd:passed:20140112-124559:0.414694673
T_0422ac3_rederive_track_parameters_from_bitstream:f8810554200349bb85384a5ae5238354:passed:20140215-162358:0.521427073
T_0423deprecated_iso639_codes:c95d432b590fb6a93f17c0ecf2a23d79-good-003f3695d4d68adc942fddeaa0675ea2-good-da508dc16f8a3d8c348dfa97ea4e8df8-good-b4f29436ed4975436212a7b5b4974e7a-good:passed:20140222-185414:0.46010222
T_0424avc_recover_point_sei_before_second_field:f3e0e0310a46a529bc3a398163f1340d:passed:20140304-190254:0.39385223
T_0425mpeg_ts_timestamp_outlier:a502fe9c54c5b056f86210c60fc020de:passed:20140305-203603:0.670819411
T_0426extract_write_bom_only_once:a9255d40de93e2731aaead0a746e582f-a9255d40de93e2731aaead0a746e582f:passed:20140310-195606:0.081261359
T_0427ui_locale_pt_BR:7db9ee7a6cbd3b9529347fae73b87460-d560565fe266e0f4d238ac4ee3ee0f19:passed:20140418-103113:0.090649924
T_0428mkv_misdetected_as_ass:c01fdd807880b451a1c0afcb0b3271de:passed:20140518-155446:0.064731871
T_0429track_statistics_tags:499343afe153be4cd75709b0759e1e80-fd87bf65622feb4878bf1b4f6ffaf3b6-93d1cb2c2f6e928781f98030ddd1c644-83b464a565af23e5d10bf5f6a565020c:passed:20140524-194544:0.930943965
T_0430cues_multiple_blocks_same_timecode:be9a397e9912773be75f87cfe03e75c0:passed:20140525-173642:0.050043495
T_0431ssa_comments_exclamation_mark:43120883946cb5d91798d093751cabf6:passed:20140618-232324:0.108101896
T_0432concatenate_two_ac3_files:65aa48ddeba2d7e31c6f1770880adeb0:passed:20140727-124637:0.130524999
T_0433matroska_no_track_uid:9814206e813eaf5202f7b710ebadac42:passed:20140809-211544:0.050839039
T_0434mkvpropedit_no_track_uid:99631d7c0f79faf45a37696dae506b21-1a97554c50c754b3de2aab56e29e004e:passed:20140809-213018:0.077337146
T_0435mp4_edit_list_duration_uses_global_time_scale:a489cde7379a2e883716301a5403c0d4:passed:20140905-183027:0.160908108
T_0436extract_ssa_extradata_after_events:328b5a3024216b6dba05f9e5b7655464:passed:20140906-090602:0.087046423
T_0437ac3_from_avi_with_garbage:c473686cd77575436021295b1e61a23f:passed:20140908-144311:0.071942645
T_0438pcm_in_vob:6aaeabeae302fc9fdd037de694c5dcb5:passed:20140917-213731:0.319037458
T_0439pcm_in_m2ts:647ef74b1e509dbbdf84ef5f68dca562-ed1a04c00b50b3e0f41104b39f74cd37:passed:20140917-222633:1.352387234
T_0440chapter_display_language_default_value:5f9f28c01e6a73ad35026f2976d54ad0:passed:20140929-142306:0.042982133
T_0441mkvmerge_mp4_big_endian_pcm:30a3508082c9894b11f68ba1b29a3f57:passed:20141104-190420:0.94217711
T_0442ui_locale_ca_ES:e799c32fad802af9eb581be621be42e1-efc218c7d73104f27e852a4d6b66412e:passed:20141105-201811:0.085124612
T_0443hevc_keep_user_data:4b4bc165897516a517a090ec848793d0:passed:20141105-202533:0.191547198
T_0444pcm_statistics_from_packaged_sources:5ff2243a002bed0e572966cb7107e299-5ff2243a002bed0e572966cb7107e299-a360e07aa6d021482e36cf2e2e1ac103-a360e07aa6d021482e36cf2e2e1ac103-+++:passed:20141205-220805:0.841764638
T_0445teletext_subs_missing_second_line:d6aef3dae54f94c93f093e6922aa0b24:passed:20141210-224823:1.706118809
T_0446mkvinfo_output:b59cf9a6aa368fceac25e3fe856fee7c-995937aadc1da23f1470554008099343-6d3e24785b998f8f84ff5d331d6c7021-7a01d6443aeb4c2b47f7e5d7e84dec93-fa5209fc67a5b84fe796bd364a00cc64-7d590caa83ef2fd88b371027578dd4e4-c5c99e9444b36fc10340b9dea516966b-131db4e7dbfa080f36bc53c48d2da664-fa83a34042551af0668756b04026f67d-e2e03f33e1dd69641a1e286afab3fe98-d973134fc1d48170b8783f0b1b32f638-ac5293a69a3e6b20d968ec58d87df5ae-a2d26ce78834081cd14eb27dfb477ec6-31d4a07b9fadba265889665a45918c39-f911a2c5524ba7e78de6c210a2879184-b6e946c3229627d31f75246559875bcc-038c66f5a96831bc8d29d58da840382a-b05c0bc757ca084ff8d6a436b600de72-47dcdf0da3afc4aca5722dfffb61b560-84a0de136c7956183120eabacbcd0917-7210c21d6108a09834e48557e31d8f50-ef4632b305e6b9d81d0aed68cfcc4442-65de27994ed47028f14189685bc74e2d-b4928d1b6883924051bac4bbe8687c4e:passed:20141216-165433:3.601785635
T_0447mkvinfo_rounded_timecodes:7b5e2abae6987a2569b67b53a874429b-3ae00f30fa7122c199c2dbccf3fde84d-629c09eb7d3e7025f8b5aa31dfc565a2:passed:20141216-172642:0.481508215
T_0448mpeg_ts_with_hevc:7ad850ddf6dd174dba1a45aa0238dd0d:passed:20141216-181650:0.40050358
T_0449segfaults_assertions:error-2bacc50e6e28fb2a92d2abf2583405f5-ok-2684a2b671068c517bafd3a2cfb2aaca-b20d746aafc5f877346261c85b14e416-1c4e1111152649c31453ad6792823bbf-error-error-ok-70b00864153acfcd30c2014fdc7f38f4-09b0cab7a9b9fe95a4afd66ce9cdd0e5-2684a2b671068c517bafd3a2cfb2aaca-2684a2b671068c517bafd3a2cfb2aaca-27e77e74c5180c3ea71c18bfbcdd6918-73a5bdca335a3447cf164a3e9ad8c166-27e77e74c5180c3ea71c18bfbcdd6918:passed:20141219-195127:0.3688434
T_0450aac_loas_latm_in_mpeg_ts:d525ce556ebbb7db3b2ebf016d9d6e74:passed:20141229-210738:0.189222384
T_0451aac_loas_latm_raw:e6224b21a92be8642f191bbbd6383940:passed:20141230-155351:0.574265643
T_0452mkvinfo_track_statistics_frame_order:6fd4ed8971de72dd168a573840072bf5-31d8e9a86d0779e731017b80cd5cb6ae:passed:20141230-182428:0.367607856
T_0453mp4_with_hevc:2014c373bbab7520f482b87d39c27cb2:passed:20141231-125834:0.077886039
T_0454mp4_dash:117c29bdb5d5979f11ae108e6b8df0be-528efedd61d3fb8391483e4d70e87030:passed:20141231-214733:1.228713608
T_0455he_aacv2_ps:6cb0fbb871882642ae13194cf91eea71:passed:20150101-152553:0.138635857
T_0456tta:3c70681b74828f78a80ec97ffe113ab4-a3f2a14c15e709027c05445ac91b0659:passed:20150103-140714:0.189034433
T_0457mpeg_ts_all_pmts_with_crc_errors:35956a34f63524f8e056f5ee0c129ca1:passed:20150104-133628:0.403035645
T_0458pcm_big_endian_in_matroska:f6d2a2d1a6ba4804c41f9b5daa5f2053:passed:20150202-193826:0.0662466
T_0459append_chapters_same_uid_with_sub_chapters:c35c1ba9ccfa71bb2bb34dfb77a097c6:passed:20150202-214722:0.127756433
T_0460truehd:cb0f662e0e26b4636d9be77661d55a67-cb0f662e0e26b4636d9be77661d55a67-91f6cc984de4bf26f7405fd1a2d7f6cc-8e4297103bca0ed261dde69f5434f6ac-469ea4cfc67bcfbd4cecf80a2b731dc1-91f6cc984de4bf26f7405fd1a2d7f6cc:passed:20150210-130114:5.871055446
T_0461truehd_from_mpeg_ts:3eeb6671838c5564e5b76310331c75fd-b95b541315a7ccd961e3638e22b5754c-bfc3102f0391b2f41b23ccc920901607:passed:20150212-134650:7.301405831
T_0462dtshd_reduce_to_core:8c92d0a89ef82978c194ef08b829a660-e429118767c34bdfa5030491347316ae-e429118767c34bdfa5030491347316ae:passed:20150212-223839:0.344162578
T_0463a_ms_acm_with_track_tags:302eb940298feffcfdee5c21048105e6-98537fa39430c9b2181367af1c1eb30e:passed:20150218-142924:0.212693642
T_0464mp4_mp3_track_sampling_rate_0:3e48ce57699dcb13e0790ce589efdc40-d8c897c60cb5a9b3d292cb3ca4075222:passed:20150223-190257:0.162516245
T_0465propedit_gaps_of_130_bytes:9dc6a3c29c30c29a5195e2a576a2f642:passed:20150223-210006:0.103298949
T_0466mkvextract_avi_8bpp:2327a134fc9d96098b29af8f69bdbf1d:passed:20150223-213412:0.053319533
T_0467mpeg_ts_eac3_type_0xa1:040423610102a73ee0f2e18f4106b65b:passed:20150223-221854:0.376020974
T_0468extract_cues:2b6bd7ca7cfdbeb4137c56dd2d1eed34-7298adda934e97f42d19620a97914d48+05c94d4c3d4aa31b4b7ba70ded9bb7fd:passed:20150225-202605:0.340683246
T_0469avi_keyframes:43b20b3906911bda3f4367b5296ee421:passed:20150225-223922:0.097537735
T_0470avi_idx1_video_not_00db:784494dca221d747f594674b0acb2579-25760e1def4f0fbd01ed68d0c6b119e1-6756fe81a24cfefdc619aba1f2e72b53-8b3fd4b369103d37b2c2647deb736633-a4626e217911c8ae1da9844f0f252904-cf7b75ee06fce139a432b517bc702137:passed:20150227-215810:0.514149858
T_0471mp3_bit_id3_tag_at_start_of_file:e2b6a90097fc33bf1d34f38474de1e7b-7f6dd4e0a08bf65dda4a1f2df800f055:passed:20150303-181432:0.536899512
T_0472flv_headers_signal_no_tracks:26cf9452dac3f485fbbd91576dddcd69-2ab8aa7e63314b2abe5a894d0b668be0:passed:20150309-182340:0.28866888
T_0473quicktime_cinepak_pcm:4cab16dbf4e11b556488367a6f52a0c9-dbd1f25cf309b9e1205d4a4ce3e97d31:passed:20150309-204710:0.179467497
T_0474quicktime_rpza:e347322eea2b7339933d241158488c7f-2aa3c9ff62fd56af86426db54c57077b:passed:20150311-192934:0.130187877
T_0475quicktime_ima4_audio:c5c9d86586fb87975f79cd53c437d8c9-83291d715ca7f44fe7043c467e575282-83fdebdcc4c73da1bfa8356c54936e5f:passed:20150313-221230:0.376533899
T_0476hevc_append_and_set_default_duration:568cedf9c6273e973ef01682e50066ec:passed:20150323-142700:0.352800407
T_0477ui_locale_sv_SE:23026ac2ed9767541e89f2261bcf8b60-938dc06fdd5c54793ae6c09b8a0268b1:passed:20150324-123356:0.075002422
T_0478ui_locale_sr_RS_latin:e82297022868c560a80c41513033ef39-2cdbfc8453e871653f2243f91e7a8fcb:passed:20150829-204735:0.08139514
T_0479dts_7_1_channels:1f7a19108f12f3b140094e802e9f5c8e-2968b6754cb0ba0e7c64ba2f5a4c5805:passed:20150325-221521:0.237314797
T_0480dts_express:7ccb9c77938f49bc9746d1d8febffa32-2d7b3e9f03ca4afb5c50c481a8bfffb5:passed:20150326-093608:0.233868238
T_0481dts_hd_high_resolution:3a0c464053cdc753c2e6481dce5e239f-5b56593b6e958f2588389f2770f46c20:passed:20150326-184450:0.131154223
T_0482hevc_no_aspect_ratio_in_sps:b1919024f03d30e1b7f5e3447c59216b-19d90c93d825522649db57b7f2dd4683-b874e2a9e2d5f99eb3b9f2d972bf4a1c:passed:20150327-125855:0.216521366
T_0483select_tracks_by_language:a436c15c04caf7007bb78656c71995ec+af36004e519607e0b5eed8f34e1df0d6+af36004e519607e0b5eed8f34e1df0d6+af36004e519607e0b5eed8f34e1df0d6+19d977b47bed8e722d308b847c1d502c:passed:20150328-191349:0.311796057
T_0484dts_without_core_xll_substream:52d104f93f65152e13af30e4cbc8b5d7:passed:20150328-221149:0.05772779
T_0485dtshd_file_format:f7fdab2d67a4320b890ba52b8c47df3d:passed:20150329-085728:0.423813396
T_0486m2ts_eac3_with_extension_in_own_packet:2f6d8446632d7edc795c1d7e2cd3ba07:passed:20150329-193642:0.163439693
T_0487matroska_version_and_read_version_with_opus:4+2-4+2-4+2-4+1-4+2-4+1-4+1-4+1:passed:20150329-213811:1.395011808
T_0488hevc_conformance_window_with_cropping:cabafc80b183eed450ae4ffcf5c483f5:passed:20150329-220212:0.085587355
T_0489dts_es:90572a1083df3406abb0a8ab498eb531-660e417004a4197776e9f99b50734238-3a7266b90652a1ba15ac0e29f65895e0:passed:20150403-115948:0.216098263
T_0490sequence_numbers_no_0_in_first_gop:879221455047951b741418f2d574381c:passed:20150411-142423:0.234618093
T_0491auto_additional_files_only_with_vts_prefix:b3060ba645eedd51a98b41a58559f55b:passed:20150413-202924:0.202768395
T_0492truehd_ac3_setting_track_properties:62c6f5ed404f285d9a2028e6e3262f96-8cf4b9ffb67a839ede4999211e66a2d6-12c323ec05059954141a39d164753734-3e431b20e4244a75b7b85efd8101a178-91f6cc984de4bf26f7405fd1a2d7f6cc-c1f6c97929172120c8d12fd1de3a320b:passed:20150413-211600:6.034964511
T_0493truehd_ac3_setting_track_properties_mpeg_ts:df1d421164253bc1ee6247ee261e9bcb-4c4297aeafa7046106a6ba38ec63d0b5-f6ad83369f016302beb651e29ed7c3e8-e08fe73b45439e185a0ec02abba5dae6-cb13f1dd144c688ada93ecd71ee183d3-964ea4190971d87f4abc28f6896d11cc:passed:20150413-211707:1.206164375
T_0494dont_abort_with_aac_error_proection_specific_config:96261add4793cea59728dcec98ac956f:passed:20150416-092327:0.102255662
T_0495default_durataion_and_sync:12ef621ebb0943d009975df7747aca75-1fbbca11899e31bf890e06595f4b4afe-f146a53b2fed60817ea9b715a0a7730f:passed:20150417-213623:0.376724948
T_0496segment_size_0:19ec68dca40b5f916a083963e549ed13-530dab6feb9ae4186e0e155cc0164e99:passed:20150530-180226:0.080589744
T_0497crash_in_base64_decoder:c10d48204f539117511a0944acda3ee1:passed:20150601-192215:0.047895922
T_0498mp2_misidentification:d723c44fe76de83bfa14fb2373b9e2a6-56c0b04c5fedc63f513f982d1a67d63c:passed:20150610-111131:0.179337846
T_0499propedit_tags_and_track_properties:d7beb22366dbb5d15fac1554f3ecfd40:passed:20150621-111029:0.341217189
T_0500mp4_eac3_fourcc_ec_3:f47fac729f63e75fd62d4f76d91364b1:passed:20150621-224248:0.421543503
T_0501mpeg_ts_pat_and_pmt_crc_errors:84e6047c7854e1859ff0f6633e1f108a:passed:20150704-110859:0.08983115
T_0502ui_locale_sr_RS:650e05c9c091234882980f4c1da05dc4-632a5e29cec2d5481179e7709cc549ce:passed:20150829-213708:0.070598527
T_0503pcm_in_mkv_varying_samples_per_packet:8f5accc5f20ac8f6bd680f64ffb4666c:passed:20151004-215848:0.798819776
T_0504dts_96_24_identification:714be08304c623a79718bd4b32e5dc60-fbb375fbf27471d840d5697e90e67488-af15fa6318a9384ccfee94e1351ef81b:passed:20151006-223804:0.188046967
T_0505cisco_talos_can_0036:110ba60cb0bd8ff559c00155023e473a-edcfccea7c0eb100f485f0a560258074:passed:20151020-161153:0.111384967
T_0506cisco_talos_can_0037:8b218f9433f77c360e9c408f36cda7b0-17a48314cfad29b9dbbc534393ae49b1-6a4dba1ed60e04745383661f06afcde3-a487475406501027b1105fd7190035c3-05993ca33ab9d38fac0df08502d43e29-e496554659492d2209a6f0cc4ae27970-ca90d53b72aba627a53324604b8a080e-d0ca572207a8443c278faae39402baf6:passed:20151020-161234:0.319298931
T_0507rerender_track_headers:338c7d7d79557c6a4eee2c8debc145dc-c778bf598700dd57943ccea46d345409:passed:20151022-104930:0.948212984
T_0508splitting_by_parts_with_segment_linking:existence0-true-true-true-existence1-true-true-true-existence2-true-true-true-equality_previous-true-true-equality_next-true-true:passed:20151103-204257:0.158958026
T_0509rerender_track_headers_chapters_attachments:d54ace0d6a310ea6c3adb831bd5445ea:passed:20151115-230226:0.145857589
T_0510propedit_add_attachments_without_meta_seek_present:770103c238a0f502c9ec55f0599d8544:passed:20151121-101043:0.132807112
T_0511propedit_ensure_seek_head_exists_at_front:20f53afd94e39f5bbf3f1091eefbe31d:passed:20151129-194025:0.141979056
T_0512json_identification:ca389d7ad7ae1cefc1c333dc40e25e12+ok-d6bc41ba31b316b0b8b58200ae3a835a+ok-0463a68f10a11d87481992e2af6ce36d+ok-02e3092da95838f1b748dc71e452b082+ok-9c68bd3000e7a9da685416f73a721c9d+ok-edb81dcc53a754e2eb29a9986e7be8a2+ok-fc9de5416265a380fa3769de401246e4+ok-0b06a922ad49d0da282c9d6ac9154f26+ok-5c7e45a89e8214a6b4a3d9bbc7ac8252+ok-f28b00b14769d78e8cf4a54f17634b12+ok-8882963e9d459221b48c0cc246c880ee+ok-95a078142585dd2f790f2e33d2f3ae03+ok-2f85f494d6590a3c4a9e6f44d41f9ae8+ok-b396e0a31cc986cedccbdfc3e81efc25+ok-63b90823a5846240cb838d2c4c85d9d6+ok-100d3563880ec3050601c14ce8b38ac7+ok-d6254802a921e2d07a205ac6a0e3a719+ok:passed:20151207-223859:1.615897128
T_0513vp9_10bit_key_frame_detection:46363bbd983c0dfacf1e8c75286f90fd:passed:20151208-224613:0.33598542
T_0514remove_track_statistics_tags_during_remux:499343afe153be4cd75709b0759e1e80-4e42b42800936151663f3626c078766e-68999835f4fd6ed9c73d98833dad9ac3:passed:20151215-134129:0.74882362
T_0515aac_sampling_frequency_8000_is_not_sbr:6ff02a4846ee19d54b4cbc72ed721112:passed:20151219-130357:0.115718012
T_0516hevc_rap_sample_grouping:b92787d63e155db15864c866eed881ac:passed:20151228-124607:0.163419662
T_0517h264_forbidden_byte_sequence_in_slice_nalu:49f5666c4fb820cb859519427fa8c7e3:passed:20151228-134333:0.350931297
T_0518mlp:75a11181bf5dca312f155952a06c90e3-3383d4c09c6a231d40b2a825e4bbd52d:passed:20151229-134422:0.497653101
T_0519truehd:cb0f662e0e26b4636d9be77661d55a67-cb0f662e0e26b4636d9be77661d55a67:passed:20151229-135950:4.275223619
T_0520truehd_mlp_atmos_detection:933082e71876ab5c89ce44aff9638f0e+true-d034d80ecde122fcfb1026b43a9b7032+true-af66c888721d3db496ddbeef57f7b2b6+true-7651394bf8e7025e83da2372eac987c3+true-0658d75a3ec6df57bf5e831c190eb633+true-100d3563880ec3050601c14ce8b38ac7+true:passed:20151229-160649:0.347572567
T_0521mp4_edit_list_constant_offset_with_segment_duration_not_0:a98f0fc09a30816553af632c5602d534:passed:20151228-185646:1.71116036
T_0522mpeg_1_2_es_no_start_code_at_beginning:cf63c8454526e94c6947a0b72e7963cf:passed:20151230-182435:0.082180374
T_0523mpeg_ts_pes_size_0:70bc6538b46ba9375f8828ab895fc23e-35a8e3a06d95bb550f6e487ed5983955:passed:20151230-221825:0.766008582
T_0524mpeg2_misdetected_as_truehd:dacc8284272cc17cb3915b479b4f771a:passed:20160102-222743:0.076757903
T_0525truehd_doesnt_start_with_sync_frame:90300695ef1b9a99d4820f1e8432fc61:passed:20160104-205804:0.105462452
T_0526propedit_bibliographic_and_terminology_iso_639_2:499343afe153be4cd75709b0759e1e80-f0c6eb63d750e9a9883e40e5f360b92f-499343afe153be4cd75709b0759e1e80-f0c6eb63d750e9a9883e40e5f360b92f:passed:20160108-105234:0.789951533
T_0527quicktime_v1_sound_stsd_zero_values:7e3be8a44c6b043f09f8998b6781515e:passed:20160117-112706:0.043313176
T_0528handbrake_chapter_uids:d5b5a3a5d8ea200a83a85329f7899f52:passed:20160119-173353:0.259046225
T_0529aac_program_config_element_with_empty_comment_at_end:ed4efbc395717b3aeef9860625f7bdf0:passed:20160124-120513:0.057155917
T_0530avi_negative_video_height:a07670a0d4563d5b69f5478bd09d6648:passed:20160210-170826:0.04756217
T_0531simple_chapter_extraction:6b6dccb8f5a4ab488da2f174e0d9450c-6b6dccb8f5a4ab488da2f174e0d9450c-e790f2e02daab6faabf712ccf9877ac2-b832af714e46ad7514e669297320b032-b832af714e46ad7514e669297320b032-59afc62025a19921cfa64280acbbb61c:passed:20160225-223308:0.301097904
T_0532chapter_generation_when_appending:e102fec5dd5d31a6fe17e3989c9f0164-9aa25fe201c0d6779578e54975e68e20-0e68069da1c11cb1f9e215b3c21b08fd+7e7e54124f293273db46d7e0c238e612+468e7c05743a52dc32b9478613078ce0+df031f21b3c885b60f13d9dad9e46d59+02aeec43dc92c465ec17a0180a492d19+e19a2b85d9e9225faab451058914d6bc+a57bd96f0c74a56cd82ac62715d7f0bb+ok-0dd31f42ceeb93b1380e1c8ce74ee76e:passed:20160301-194344:2.170367494
T_0533chapter_generation_interval:11536737d01edbd2f78ea6c522769c9d-cf524a9f5f86c3c0617637940c2111e3-717fd13baea40bbba1b1cf8e6e45b91c+1a5c481b9c7e8130cd98d9b84614043f+f8d459c499f3f9bec3dd16afa54f34b4+442119d42aa1e1f0e1e35b316ddfa0aa+bd95f2939baf6eb590e87713b0e57393+a4bf93a0ea28fb7c44606ed644316e03+a57bd96f0c74a56cd82ac62715d7f0bb+ok-bdab417e236528cafdadf743c34093cb:passed:20160301-194459:2.225262916
T_0534chapter_generation_when_appending_audio_only:d4fac4110072fcd9f0453126b4c0a39a-0f022bdba6b6db69f4b27f971ac61d92-0680b53512d0db510249c396227e590c+8cec66bed28b054cd22d687b0cfede81+6d243a46a31a8c5588bb550c161c1724+119c09e4b714d405689c72ba45a4e9a8+96ee33b1db536499c36f2df587b1fad9+d722dc9ed52835bd38b05429fdb1d2ac+6ee2191977823b0ebc5784cfa06c4c89+ok-23e02098bd261a29da89230555523881:passed:20160302-130929:0.96098178
T_0535chapter_generation_interval_audio_only:dfa1cd3d128c2412f34fec60954e8543-4a4d820c0630b4f04fc2f7d03950e164-0680b53512d0db510249c396227e590c+b115295a01e4eb876ccd99867e148a03+ee45f9f89470cb70cb0a06ee2643985f+b709700bb9fe0f32debe9f3b9c59e3c3+a2b7366160c0e6d2d7143bcb60d310f8+52247adacc84d9280bb21420441cb4b8+0f9405968de440095923cf7c3ee292e9+ok-b344c1ceb7ce26fe0ed33ba478de06da:passed:20160302-131002:0.988381202
T_0536extract_big_endian_pcm:8969a34f345d2be56d62d809d5b5f90a:passed:20160307-190156:0.048644287
T_0537srt_bom_precedence_over_sub_charset:dc7c64a464384ff98420f2eca5e87e8b-dc7c64a464384ff98420f2eca5e87e8b-dc7c64a464384ff98420f2eca5e87e8b-9814206e813eaf5202f7b710ebadac42:passed:20160309-180444:0.238747077
T_0538teletext_many_packets_same_content:5730717c3b031e00446a6e1c5bf1490f:passed:20160316-143840:0.463912613
T_0539ui_locale_ko_KR:a78ed3e34c08f449e4e283d206a3c0ef-f1b52c4c680dd605ddfcb99cc02c81a2:passed:20160321-173717:0.072065814
T_0540teletext_non_subtitle_pages:70c40efe6e1bf5d13702d626b4de69cf:passed:20160324-204239:0.161620813
T_0541dts_hd_ma_reduce_to_core_channels:bd2fb73dfe46972251f591b8a1663e0c-6:passed:20160327-145153:0.125821422
T_0542h264_interlaced_bottom_field_first:efa9ab425c9e6b5d290819dc7d992aa3:passed:20160329-220636:0.222212579
T_0543webvtt:de0c8d72f6551728214680c7c5b3c4ef-dcafe57357eb3bf3614e351be6af63eb-b32630a7575b96c1efe60eadde59b835-6025ffdc7f827a655571e02c76fe8442-ad606e74812255427fca14b0dce61e69-63e0e3b8179678ebe6e20435d27bc635-27c29e198cd9abf1fdd54a54ac9e1471-2a286665fe1970bf8f82a3e08351ceb8:passed:20160411-210911:0.442739488
T_0544X_webvtt:f2c1bcde331379ca76c5e1367d223b71-9588ba9a876ebb8dae61f6ee88f005cb-632288a3409bd1423bf1046db081fcb2-1156c9c5852899af1d5f4b4c592dc3fe-a2aadd343d93e3f3f400b9a4b32cbef2-09b2b283791ecb7401631d640d67d67e-b543cedb3953d783ae9b40ad5d9bc09a-7fabd75caf5b576686cebe878c4f94b1:passed:20160411-215720:0.841816821
T_0545avi_incomplete_audio_chunk_at_end:c6604d80707b9e37e669e850954451a8:passed:20160413-193628:0.609780211
T_0546teletext_multiple_pages_in_single_track:5a23f446c08aa82891112808bcf8c2e4-79ec40e317ddbf8cc38b5a89d644e9bb-5433dcc9876ec0840bdc02cecede7464:passed:20160423-142735:0.392052229
T_0547mpeg_ts_ac3_stream_type_0x87:7f3aaedb0aa2c67878edd09c16cfa422-3:passed:20160506-140318:0.179239766
T_0548generate_chapters_interval:cab83b7719ad009ec4f8ad5ec3859eca-70-70cc4806bffdeb02f6c7af14313767aa-35-05660f304f35cd362e04ba756d197f57-24-fef5b26b7080c329de0fd2828216efc9-18-f0aef672a9ae5f8f256205c7b33a0f36-14-2398d52f636285c4c330985edc6b66bd-12-3d244d4eaf2171e7fa50a47f6ce05cb6-10-3afae574fcc61ab0db1d38fd64add6b8-9-c7ce1f1e97c74449845d455b267f54d7-8-d263a3601b0ef61db64c1b7e45f31d88-7-03c9a1d648e96582466d2d1b1a568966-4-b344c1ceb7ce26fe0ed33ba478de06da-3-d9685667e0106d8fd56c4369e502b41e-2-dd04c9a4751f82e68ad49b92348a2ab3-2-9722e743b0ffc1cd9a36362b13288987-2-23e02098bd261a29da89230555523881-1:passed:20160515-114928:3.126305015
T_0549truehd_96khz_sample_rate:c24277d9a3fea90674eb56065f9f33d5:passed:20160627-185805:0.393993721
T_0550wavpack4_stream_version_0x410:d53be019172016b2d7c280b39061899d:passed:20160703-121539:0.07124975
T_0551deprecated_cctld_codes:bba263818d74830343ca05634f1f2b1a-c4687d85ab3971784e5cf1ee4d4932e7-5a48a231c2bb2e170ab4497f47d0be72:passed:20160703-145341:0.160111274
T_0552chapter_generation_appending_file_name_variables:30aeec5c6419c500db16f5a6463ec851:passed:20160710-203404:0.265192622
T_0553ogg_kate:56b1ae8b65fa9b6224146d90b380f644-57b555bb8492d681c33e2e50e8289455-605afbe3597a9d8bc41ffa3ae79ba376-d8e09b6334b1ce4d67dce6053336a21f-5625296d8e1da12c1158140f2a62e540-5d02d78d0f912b57d8bf55d3f808f7e2-289395aa124d6a51d3d433e5884ab73c-c65e5f57a9104d101c594396da1c2e6d-188a1379e034fd6d2516642b3519c9c5-593c5f8310a89aa69776a6efdfb60ab1-b70640c9b245c721c06f7d70a64926bd-6be84568add431c5880a211d4e7db002-b4ae20add5e54b87d13845a35d42ab97-35f4b5b8a9a76e5750bc5ff5e1c9c4ed-de7c7017ddba16f565d56b48801b3d15-f376708e5176ddb6de32495e19e9511b:passed:20160729-134725:0.858050614
T_0554ogg_vp8:6318eaa8c9d6a04d5f43c717767b8857-124e9efbbf9b02353600419c0b66cf78:passed:20160729-190454:0.110220619
T_0555appending_with_square_brackets:f0a750710a84547e77e5ad6e92590cf7-f0a750710a84547e77e5ad6e92590cf7-f0a750710a84547e77e5ad6e92590cf7-f0a750710a84547e77e5ad6e92590cf7-f0a750710a84547e77e5ad6e92590cf7-f0a750710a84547e77e5ad6e92590cf7:passed:20160730-115423:1.371165547
T_0556prores:b77bcebee6da4c34860da7c1e4e92a48-563780b40c023a96ddfa98c5a11e1d58-49fc8ec9a82a13aca39472257efc88fd-9e47da3262a207efd735271b5873daf8-21325c28e4627a051e4d5d8e4983e0a4-21325c28e4627a051e4d5d8e4983e0a4:passed:20160806-201730:1.521891825
T_0557dts_hd_ma_xll_extension:96000-192000-0562ace0075021a700445c84c3e3afd8-0562ace0075021a700445c84c3e3afd8:passed:20160810-203155:0.338017242
T_0558segfaults_issue_1780_part_1:error-error-error-error-error:passed:20160906-210126:0.261432859
T_0559segfaults_issue_1780_part_2:error-error-error-error-error-error-error-error-error-error-error-error-error-error-error-error-error-error-error-error-error-error-error-error-error-error-error-error:passed:20160906-225430:1.623738345
T_0560segfaults_issue_1780_part_3:efd65110f38ba753689da4e8f87ababd-efd65110f38ba753689da4e8f87ababd-efd65110f38ba753689da4e8f87ababd-efd65110f38ba753689da4e8f87ababd-efd65110f38ba753689da4e8f87ababd-efd65110f38ba753689da4e8f87ababd-efd65110f38ba753689da4e8f87ababd-13a8539fdfe4407aea57feecdd78c4ea-8e564b337c79e45d22c7499678de2049-efd65110f38ba753689da4e8f87ababd-abe5ae8a2047244ec3e8c3ffbe12789c-dfeeff81a892a758785c025697cb6b5b-8e564b337c79e45d22c7499678de2049-efd65110f38ba753689da4e8f87ababd-1e7af8e8d9de2b539eddff7d8a03321d-855d33e94baf2f7fbed6240afbbbdee3-855d33e94baf2f7fbed6240afbbbdee3-855d33e94baf2f7fbed6240afbbbdee3-855d33e94baf2f7fbed6240afbbbdee3-855d33e94baf2f7fbed6240afbbbdee3-warning:passed:20160906-225653:1.198095808
T_0561segfaults_issue_1780_part_4:error:passed:20160906-225808:0.060458777
T_0562segfaults_issue_1780_part_5:error-7d3872bc61ee9335a46d092a80a1ef10-warning:passed:20160906-225922:0.636905522
T_0563segfaults_issue_1780_part_6:error-error:passed:20160906-230017:0.076950413
T_0564segfaults_issue_1780_part_7:error-error:passed:20160907-203352:0.087889548
T_0565hevc_detection_failed_due_to_width_height:9155f97b9a17b74e1c928ed527f66009-81e8573a10af4bfd31e4c69e04db6e2b:passed:20160911-140155:0.305931601
T_0566opus_with_comment_header:f4b637b73070721d6e062be0052b767a:passed:20160930-100110:0.065112284
T_0567propedit_muxing_writing_application:5e62e9bfbe8c2db593a1ec72fcdc8db2-chunky bacon//b0f2222966db58efd1cf98ac75522f49:passed:20161006-212023:0.157511798
T_0568dts_wav_14_in_16_detection_failures:08c1754ecabd76d86152105d11b440a9-94c4e1288fa5321a995ca68e59982eb8:passed:20161009-202725:0.3463309
T_0569wav_dts_ac3_track_properties:6f8fedab9873a950095b50bfae5c97ff-0647a19df1ed178023cabfbcd35d27ee-5f4dfbe514746e68f21a6b84c8f08ab3-b74d35c0370d76351ee3a875940bf88f:passed:20161009-213308:0.318879048
T_0570h264_misdetected_as_mpeg_ts:cc782643d360fafbe51fc556fb2f39fc-ad9d5b2a3abb93c5245f708c408472b3:passed:20161010-181816:0.140230716
T_0571bluray_pcm_odd_number_of_channels:b15915c9cd9be8c3f406f4ba3483a66a:passed:20161012-204232:0.103937851
T_0572hdmv_textst:41cb714ced2340197bfab5a1495e1714-12a350c576af30ce84bce8fc5edda8b2-0d52b152b0c11433a41c6d0d42c1e662+cc014fb1856c0e601352112f2664d039:passed:20161128-164101:0.292849086
T_0573teletext_subs_data_unit_id_0x02_and_multiple_magazines:2a338fb4f283556465d62281d1ba9b3a:passed:20161208-202941:0.114250152
T_0574tta_with_apev2_tags:1adb51d484958372f97b683c812a67e8-aa163558a6b12f5b2a4f35afae62ca5f:passed:20161223-210853:0.075940157
T_0575mpeg_ts_subtitle_timestamps_way_off_from_video_timestamps:3afbe4ff537c8132fa0e33aed1fbfbea:passed:20170106-200606:0.445406444
T_0576codec_delay_in_identification:7fc8f87043931f15989b0338d452e2a1-123000456:passed:20170107-123513:0.238918596
T_0577keep_codec_delay_during_remux:7fc8f87043931f15989b0338d452e2a1-123000456+123000456-835d643451b231f6086024c481919828-123000456+6500000:passed:20170107-125917:0.9793262
T_0578iso639_2_codes_qaa_qad:qaa+qad+qaa+qad-und+und+qaa+qad:passed:20170108-150736:0.995438864
T_0579vobsub_in_matroska_without_codecprivate:36bed2d42b16458ce8e362443d84dbc2-0ff321f75cd1cf561e88aac05a291b30:passed:20170122-113531:0.172748247
T_0580mp4_dash_moof_after_moov_and_mdat:cf676b08142a52ff80526c1ddb1a8d21:passed:20170127-203233:0.132041069
T_0581mp4_multiple_moov_atoms:249f9cfb1b16a7b17c0f528f32c3fe14:passed:20170129-104017:0.326233373
T_0582reading_mp4_with_and_without_track_order:892e490861d33697917546d48f77ba98-892e490861d33697917546d48f77ba98:passed:20170211-173020:0.259521469
T_0583dvbsub_four_bytes_codecprivate:4+4+4-dce2f3ca24fbf91ff024282c74154253:passed:20170217-183748:0.162855779
T_0584ac_3_misdetected_as_mp3:true-01faf42fce6f973ea0e9e2fdfe37f4d7:passed:20170218-123152:1.11707901
T_0585h264_wrong_mapping_of_timestamps_to_frames:78d08fa8ee42c4e3dfb3c11cdb7be208:passed:20170318-172210:0.342827809
T_0586h265_invalid_default_display_window_in_sps_vui:4b17ce39830e26423f890327f67b51bd:passed:20170319-185708:0.071509161
T_0587X_ssa_ass_shorter_non_standard_event_format:8a247e76b55536c66e8f0c6b03b14de7:passed:20170320-133053:0.035154018
T_0588h265_must_copy_bitstream_restriction_info_in_vui_parameters:b437835bd98c5558d01747bb0834bfe8:passed:20170330-194958:0.157143306
T_0589h264_forcing_default_duration_in_fields_with_source_matroska:06f0520f18b169b4ae7f021e2cb9474a-40000000+40000000+true-d72f1abcd2b5e34b7afcff952ab11492-20000000+20000000+true-d0d7592b4e63983206f1bcf0acb376c3-30000000+30000000+true-caef095e45c69cdf93df53be134ea506-60000000+60000000+true-abdd5c8687d533117dc0f32fb5df8cb2-20000000+20000000+true:passed:20170331-165013:0.8859877
T_0590invalid_track_language_elements:fb9bd7675aa6480884ca4962b9cea4a0-bed1fa2bd516a7d60100cd031e444b52-504377ff162f30bc8e8dfa117def63ca:passed:20170404-191832:0.188005288
T_0591hevc_wrong_number_of_parameter_sets:c9b907cd2a5f65f6e964c5c4a89f8bfb:passed:20170412-165246:0.211715957
T_0592mpeg_ts_aac_wrong_track_parameters_detected:46e18754b24a21348cec98194e9be5b6:passed:20170412-225238:0.094043164
T_0593flac_with_picture_metadata:bac941fb2811f2a98f8d441094f1a78c-80000d177e69d5a0706265a818da7d76-e9050bc78d9e45f95bab9ebd2fae82a5-f2bcb6d0da53b6e735191841a8d4815f-a082abba609f947bdadcc2ea4e9f978b:passed:20170415-182414:0.759487754
T_0594hevc_split_parts_discarding_start_endless_loop:238830b40354763b5843b38cf33eddf3:passed:20170416-073513:0.130443398
T_0595h264_bogus_timing_info:c9b1db8d027f801dd6f5727edfe7d4c0:passed:20170417-200233:0.09848111
T_0596mpeg_ts_aac_loas_latm_misdetected_as_adts:a36f9fd41902f987d439552e940624e0:passed:20170424-170304:0.146847485
T_0597mpeg_ts_starting_with_avc_start_code:bcc02dbd864ffd8c8485741d76ba27db:passed:20170510-145746:0.07613792
T_0598aac_track_not_listed_in_pmt:0fbb662169b6372ff76d583368e1892d-AAC:passed:20170511-221910:0.160317684
T_0599mp4_nclx_color_type_in_colr_atom:aaabe7c66247e7e703a3c274911bced0:passed:20170514-203828:0.068110641
T_0600mpeg_ts_multiple_programs:7f5fdebd9050e5d3f7ceb973285ec116-170df49439b75f4888a50497320e7b91-34c9d3f650c11229cc99ece37a04f427-b0e15c07da6080b43a60e4b635b02e99:passed:20170522-193901:1.013242128
T_0601mp4_mpeg2_via_esds:1ac35600820f11b8f2de77b015885969:passed:20170618-150319:0.319922344
T_0602vob_with_garbage_at_start:8af88c4ad2e460c323e5e58207b55cf8:passed:20170619-185256:0.135309327
T_0603mpeg_ps_ac3_not_enough_data_in_first_packet:1+189+128+AC_3-2+189+129+AC_3-3+189+130+AC_3-4+189+131+AC_3-5+189+132+AC_3-6+189+133+AC_3-7+189+134+AC_3:passed:20170624-092201:0.061882344
T_0604append_only_one_video_track_with_codec_private:a5f354fae95f4ca05a75008c622eeb45:passed:20170624-105837:0.277065271
T_0605h264_changing_sps_pps_wrong_frame_order_and_timestamps:b90065357b105de282e1dab14da416b4:passed:20170704-211727:0.148711146
T_0606aac_960_samples_per_frame:561d415052aa24395c1839f8857c41ef-0ce24b86e9ed69fe21e60c32d8e97a4a:passed:20170720-215449:0.202094441
T_0607wave64:d4ad7c1383e7f2607bf3bf750ee42934-b4c89ad0c8903b9eb7bc316b858ef47e:passed:20170721-221321:0.085288442
T_0608ui_locale_ro_RO:3a6386df8e8d7aefb9258f070615b27d-9ced68a8f3c97c640d64d2da93a0e9ce:passed:20170722-160005:0.06105701
T_0609propedit_video_color_attributes:1cac47a8007706482ac6787969e2b5a3+40a07b7f9789f785a2502f91b8c377e7+72574733a63bca9d10a40d5e8288e579+07f96345418ee8f43dbb4df5eab956b6-ed4a04e5d0ef26a4a7ce2ec941f0e57f+6a01883a92688c9e3f116bd680ea9912+addaf377789462e93dffd62f0b9650e7+f60721daad1837291fb4b1e615dcb280:passed:20170803-210425:1.36992611
T_0610video_projection:fefc4f38a08a89baac4d7e36a3b28d56-fefc4f38a08a89baac4d7e36a3b28d56-58d7af342b2d3ffdc7f38dfe1396b883:passed:20170813-094000:0.488125405
T_0611info_null_pointer_dereference_for_ebmlbinary:68d2ebe0a701fffbcc5b5f245f1abbef:passed:20170813-104016:0.029098161
T_0612dts_provided_timestamp_used_too_early:b24f7484b72bbe28e7c5b707ac170437:passed:20170813-175153:0.063166492
T_0613vorbis_in_mp4:f4e89be769b3dace79edcc471fb6641f:passed:20170910-175618:0.128195916
T_0614white_color_coordinates_from_mkv:2271173ff84f0854ec854ab99c38cfcd-2271173ff84f0854ec854ab99c38cfcd:passed:20170916-112249:0.278013337
T_0615opus_discard_padding_in_the_middle:83c9bc66cd45d248751eab8f37b635ac:passed:20170924-230527:0.073963375
T_0616more_than_128_tracks:9adafd68dc3b631d65a4bb85f148b470-9adafd68dc3b631d65a4bb85f148b470:passed:20170925-201313:1.505582579
T_0617aac_adts_parse_program_config_element_for_channels:f807b3ee26e634e15a146919fe7dbf75:passed:20171001-201657:0.126172833
T_0618e_ac_3_with_core_and_extensions_in_different_blocks:97c720daa2940515f3d4ed6253363c9c:passed:20171001-221905:0.151469142
T_0619ac_3_misdetected_as_mpeg_ps_and_encrypted:795e9be4c1601e9853378a1fee1bfd01:passed:20171007-172620:0.057917391
T_0620ac3_incomplete_frame_with_timestamp_from_matroska:46e7d9e4674056381e955f31be961660:passed:20171014-153427:1.19512694
T_0621propedit_remove_date:5e62e9bfbe8c2db593a1ec72fcdc8db2-ok:passed:20171101-180348:0.178754212
T_0622aac_adts_8_channels_no_pce:a70febc00f779aea0aec429d516fa24f-ok:passed:20171117-190136:0.173552412
T_0623text_files_utf16le_different_line_endings:27c0385be755f71d413be4d6183443ed:passed:20171201-143509:0.072485567
T_0624h264_fix_bitstream_timing_info_exactly:0a6ac7491f45bf3d9f2030ab23ae0a6a:passed:20171218-202838:0.106331677
T_0625h264_fix_bitstream_timing_info_in_framed_packetizer:765c6afe5a7f6e964c657290f53d95a7:passed:20171218-203251:0.060946279
T_0626X_avc_two_consecutive_idr_with_same_idr_pic_id:6d023939360f96f54599a4d481cfbde5:passed:20171219-220538:0.05087073
T_0627h264_sps_pps_between_slices_of_same_frame:d051ed181bb99fa36cc114a84fa24940:passed:20171221-153453:0.039563123
T_0628srt_no_decimal_places:aa94eee1f358274bd7d6f6dcd44f1363:passed:20180102-191637:0.070696246
T_0629mpeg_ts_broken_pes_packets:b7aab40f92aad5c4509d3645fbfb16c2:passed:20180113-212211:0.190835185
T_0630propedit_add_statistics_tags_with_compression:f7c15bcd4efa5e6efe348919f5e426b6-18+70+590:passed:20180118-205706:0.153635835
T_0631ogg_opus_packet_without_data:a4a6ae7fd49a055cd90fcdaf73ea7996:passed:20180210-164242:0.196680388
T_0632flv_aac_codec_initialization_more_than_5_bytes:ba8deb2e249e89328747b7e4b3f028b0:passed:20180222-152609:0.333656616
T_0633payload_signalled_but_no_payload_bytes:2bf0ff799760b4cdbc78a45218f3f0d7:passed:20180304-220823:0.229460962
T_0634dialog_normalization_gain_removal:52c65ae8ed88a2cae4492c6a08fab727-64f3bfe7124965abeaa7eeba926b8af7-64f3bfe7124965abeaa7eeba926b8af7-64f3bfe7124965abeaa7eeba926b8af7-63f8c761b50a5f33624eb5d0f413075f-a04f53f719f95e56df4cbdf330459cef-a04f53f719f95e56df4cbdf330459cef-a04f53f719f95e56df4cbdf330459cef-46aaeacc480403f8b464fe31ac6dca57-ddd060d5f043792ec4c476ae5c7c95b9-ddd060d5f043792ec4c476ae5c7c95b9-ddd060d5f043792ec4c476ae5c7c95b9-e368fc4cedf3d917338ececf269f97fa-4baf3923971cb482cb5196107b05065d-4baf3923971cb482cb5196107b05065d-4baf3923971cb482cb5196107b05065d-47958af541f7ba6ad104808e1f69b135-68749ec95ba99e4cee3c0d9c839d8fc7-9ebf18b0e13e4a11d66f3a53740ce0fe-9ebf18b0e13e4a11d66f3a53740ce0fe:passed:20180308-204112:3.321428335
T_0635propedit_update_doc_type_version:4c7c5a32fee8b06eb4680df9bb85f98c-4+1-4+1:passed:20180310-135142:0.509975434
T_0636flac_with_id3_tags:ce3bd27faff5357c2736d03e4b997389:passed:20180310-182917:0.369755248
T_0637mp4_8_channels_in_track_headers_but_7_in_codec_specific_config:true:passed:20180322-222201:0.036850157
T_0638av1_ivf_webm:ec287c55186b9fb22d7f9fdaf0d7537f-78e99474d4f5879232092cc84176f0c5-71a1dca2f3c75d1e1732a5f7bd088306-cab34f04f49557271e65d57eaca85431-5a7ee56a6617efacfcb2013b7705d4cb-32333a04ee0c760e72fe68aff8d42d0c:passed:20180401-164905:0.287810866
T_0639vobsub_missing_duration_in_matroska:34dbea0ea5ce7f7b70309f6767bb3f37:passed:20180401-193013:0.074003406
T_0640no_date:dc72b0ee87e81ad5a8ebd1ad53cbdb36:passed:20180427-231324:0.036794747
T_0641keep_display_unit:78dc347644d87e33ae17aa13743eb64b-3+16x9-7d6d05a08dabcea6174bdf2ab36e081e-0+123x456:passed:20180609-123022:0.340072414
T_0642avc_es_clear_internal_buffers_after_reading_headers:1259c7c3dd6f4bf03a74d2034e2692df:passed:20180613-174520:0.075832336
T_0643mpeg_ts_bad_utf8_in_service_names:f967b2bf3fb4265ec723f14eb667bb9a:passed:20180615-172956:0.063654865
T_0644mp3_with_discard_padding:4c8595a9d67524841c974ed9b4b410bd:passed:20180619-214051:0.314877924
T_0645ogg_opus_first_timestamp_negative:248dfdfc7760f3ea9ac83a55e6b90929-bc2a1f5f43740e0502c5f7c8b186401c:passed:20180620-185732:9.891040757
T_0646ogg_opus_gap_page_missing:1c05ede8c2cfed61567e86abea72ca8c:passed:20180621-154830:0.065952139
T_0647recode_textsubs_from_matroska:364e924c266499af5a0aa78547a8df94-c853b8eeaaa98750d02500b44e409ab4:passed:20180621-194122:0.093925154
T_0648append_matroska_first_timestamp_not_zero:4139b1e8962747d8a94de2e93fb7bb4d:passed:20180724-210331:0.068294673
T_0649unsupported_file_types:ok-ok-ok-ok-ok:passed:20180806-201225:0.221070923
T_0650chapter_generation_no_names:f742ad4002136df6c70b91a6a820777c-ok:passed:20180821-140249:0.147869851
T_0651sync_chapter_timestamps:5a55eac4e3b61a5be4a002bc09855bf3-cb4ca341c7611ab68324a2edc58bca28-9fc07924c5130fa087ce29b6fddb7598-9fc07924c5130fa087ce29b6fddb7598-b95fd66ec80447e1a5ae01ccdd5a7f63-4015dd837c62f19c7705d855d1335961-4015dd837c62f19c7705d855d1335961-8f297b3d744e468cb7b8ecae3e853727-e8178e29d51b2cf8f7fab9a2643e54d8-d673e52c096fb5a46c575906a3b6f507-d673e52c096fb5a46c575906a3b6f507-abb6880a7e0ee84d8db85fba3e21fa42-24ba14097e1534d0def91f75f34a281a-24ba14097e1534d0def91f75f34a281a-9f0b5413bcbfca8e91f0e85653e64e69-70270aa2d3dab107756bc8817ef46a32-0a7473fa206ebf9f094e2382d7579c7d-0a7473fa206ebf9f094e2382d7579c7d-6f7240ccff0acd0f9bdd32c291b851fb-498401e17c0e9257699014d9ecad7af3-498401e17c0e9257699014d9ecad7af3-bba263818d74830343ca05634f1f2b1a-a700274bb916b9e7c90ca0942c4491cf-a700274bb916b9e7c90ca0942c4491cf-a700274bb916b9e7c90ca0942c4491cf-a222fe542ae0879b7708bdc5c596d7e9-a222fe542ae0879b7708bdc5c596d7e9-a222fe542ae0879b7708bdc5c596d7e9:passed:20180918-223701:9.926478092
T_0652quicktime_pcm_in24:60afbf6be80fe5633c99fe2e15134443-true:passed:20181001-103254:1.923693932
T_0653X_text_subtitles_without_duration:5162bddd5f57ee5fb7e8fa2da506d963:passed:20181005-185654:0.047151348
T_0654text_subtitles_without_duration:26069e01ff1ecac10a17ff33fbf7a210:passed:20181005-202509:0.052093947
T_0655mpeg_ts_teletext_subs_long_gap_until_end_of_display:6f75e67e31356b287c3d1d7c3c7c70e7:passed:20181005-212927:2.169433869
T_0656mpeg_ts_bad_utf8_in_service_names2:92321b1451050a6fa6b3853c72783c9a:passed:20181006-122753:0.056613914
T_0657av1_from_mp4:554ba00eae8561c89d7d6629df00dd32:passed:20181007-220646:0.267172573
T_0658X_av1:20347e54bac4d1b0fe82d1f2f6c17c4d-289c852c96e8838786bd1a6ce0bb5179:passed:20181007-225807:0.078555903
T_0659av1_timing_info_in_bitstream:2ddada8d07db964d8d288eaeacb92447-afcffba37aacbe4a8934da8a30b03f81:passed:20181007-235434:0.080574964
T_0660propedit_replace_one_byte_with_ebmlvoid_all_surrounding_elements_coded_size_length_8:a16d7aa5d00d120d20c4c3c718e1b00b:passed:20181020-160502:0.129495293
T_0661av1_in_matroska_by_mkvmerge_28_0_0:12df7180e9b70ba867e0ddf8e6905931:passed:20181021-225056:0.059216599
T_0662cisco_talos_2018_0694:2bacc50e6e28fb2a92d2abf2583405f5:passed:20181025-215511:0.044275911
T_0663mp4_wrong_atom_size_in_track_headers:4b70379c9a9b0b44154f361ee433660f:passed:20181115-195646:0.519512271
T_0664generate_chapters_interval_first_video_timestamp_bigger_than_0:23890d09116f8507d82429312fef1aa0-true:passed:20181116-094425:0.829160754
T_0665X_aac_program_config_element_in_audio_specific_config:16e784e5099e573e1f24286ec04dc591-c9d4c821b247fa99cb8c19549be13fea:passed:20181121-165428:0.083016359
T_0666propedit_update_cues_after_cluster_was_moved:1098cab0332aefe8275b885f0dba7069:passed:20181124-150141:0.255129293
T_0667ogg_chapters_use_name_template:8c4962aef5158a53afebb26764d9c310-0825b6e90b221e60bcd49e2ab94788cb:passed:20181125-222443:0.095775094
T_0668flush_on_close:5e62e9bfbe8c2db593a1ec72fcdc8db2-e811bbfaa7fabc16d14310db3092dbe3:passed:20190110-220105:0.218966299
T_0669ssa_ass_zero_duration:fde5c8597f0d8ff9346397fa3cfb2620-cb0f199ccc7a18831957db13d7527590:passed:20190124-143027:0.069359568
T_0670h265_interlaced:720x480+1920x1080+1920x1080+1920x1080+1920x1080+1920x1080+1920x1080+1920x1080+1920x1080+1920x1080+1920x1080:passed:20190126-134743:0.219498113
T_0671emojis:359f706463a859d2946d15a32a710f68-true:passed:20190312-202232:0.082280625
T_0672codec_name:96ac82d7ee6ab5f14d147db543d4f094-true:passed:20190617-195042:0.084330347
T_0673srt_different_eol_styles:e33d517d8c4aa28e1283e9d6af6a8c66:passed:20190810-160539:0.139874653
T_0674ui_locale_bg_BG:dd68e655c0478092911742dc17732ad9-d008e383652d650d13a900f3d7b3c151:passed:20191103-114402:0.058887726
T_0675mp4_cover:b7ef141952a94607ebe90bbb3f3cb559-7c2938cdd8fdbcb9e5449632f631e446-060170d57bac3c83175be67abc289b27+060170d57bac3c83175be67abc289b27+true-74011d9f92ef97ba156da32ec9ead698:passed:20191103-131313:0.63170349
T_0676cover_art_vorbis_opus:cb1de19cabc00e4114bb52726c8f0db9-2f32da9688bc5cfbfd0800f268b53d41-72e193b0682dad985317cd03d2be1ab9+72e193b0682dad985317cd03d2be1ab9+true-ebbc3aefd1bc58b0e9860115c1bea5f6-e2e0c61aef0416e7db0d3885a34037b8-72e193b0682dad985317cd03d2be1ab9+72e193b0682dad985317cd03d2be1ab9+true-cb1de19cabc00e4114bb52726c8f0db9-daf4a8a1b1e1726347badcbbc6eacf85-e55849ace1748ac515b16881e397101a+e55849ace1748ac515b16881e397101a+true-ebbc3aefd1bc58b0e9860115c1bea5f6-3f30a9e1e8f9a82a1c09f68fdc5b8284-e55849ace1748ac515b16881e397101a+e55849ace1748ac515b16881e397101a+true:passed:20191110-132634:0.330887751
T_0677vorbis_in_matroska_with_comments:9d96871ed8066f0ebacdf8e0313bba1a-e1a097be88e04f3fad408372d9dd5e7a-9ce5aa4764bf56aa4d5fbbde8e915d36-f28e7fa1d7744589f9a2b60844c30d5d-83d76e74a646a9a089f9c993c844945c:passed:20191201-213124:3.090263954
T_0678rf64:a360e07aa6d021482e36cf2e2e1ac103:passed:20191202-223330:0.15124445
T_0679wavpack_from_matroska:f4d71bb68cd55d372c53f3db6117ca03-f4d71bb68cd55d372c53f3db6117ca03:passed:20191204-223048:0.161558732
T_0680header_removal_compression_without_removed_data:2558082926ebb512ff4824d4a48b4bb2:passed:20191207-095300:0.062915741
T_0681real_audio_all_timestamps_zero:48a6d1e0ef49adf5d5890fd3e1757a6a:passed:20191207-125307:0.058554905
T_0682invalid_memory_access_in_frame_assembly:8bb94fd80e7b6718a9f41cb2a694419c:passed:20191207-154924:0.154007148
T_0683prores_in_matroska_with_icpf_atom:f5b24cb02d496d022f077e9b312e0dd2:passed:20191215-151830:0.037945224
T_0684deterministic:a2144f0a4d4830798c54a23cf6cf7019+16296316534582144190+6467223910221523705+15003652824273206442+17408887814429376554-a2144f0a4d4830798c54a23cf6cf7019+16296316534582144190+6467223910221523705+15003652824273206442+17408887814429376554-f5282b59ef01ea57fd93e8b64bb1147b+11796936434107936534+2062519427281921607+10692493273940629375+13482037488641761990-f5282b59ef01ea57fd93e8b64bb1147b+11796936434107936534+2062519427281921607+10692493273940629375+13482037488641761990:passed:20191228-125752:0.41099898
T_0685propedit_track_uid_changes:4711+815+4711+815+4711+815:passed:20191229-143919:0.195071511
T_0686container_wrong_num_channels:true:passed:20200101-235713:0.055471107
T_0687h264_additional_sps_pps_in_middle:b470a4abfa22d74572ff5c9d1f1e6e82:passed:20200105-163253:0.119229733
T_0688opus_single_page:5ecf26ad69eb3b62e35cc378b0e08e3d:passed:20200113-193521:0.037249369
T_0689mpeg_ts_mpeg_2_two_frames_only:56f9e5417f8006b1ea8d2f2e70069024:passed:20200126-124111:0.094711849
T_0690mp4_single_video_frame_duration:aa12dffb5e06acc8707251e6a6fca1b4:passed:20200313-151900:0.05093237
T_0691hevc_in_mp4_no_ctts_atom_no_sei_nalus:3dd2841bcd4b70b4a5d4e6ab4a1c7428:passed:20200412-163012:0.402784562
T_0692splitting_chapter_name_in_file_name:f90456eacc7f481da6c37f3e0fc897ff:passed:20200425-145924:0.249744821
T_0693keeping_source_id_tags:b87be7fcd48d794028d54f83d982814c:passed:20200426-123650:0.341773044
T_0694fix_tags_when_regenerating_chapter_uids:edea3e1b93c805e5ca16b1e2701aca12:passed:20200501-084512:0.12406952
T_0695mpeg_ts_single_h264_frame_with_unbounded_pes_size:11b2ad3e16da86ec463b454c28e32d0a:passed:20200617-132547:0.052132087
T_0696wavpack5:b02bc30321102ac262b9d55cfe8a499e-009b8b5a53f51ddf0f8fd3be3bf808cb-b02bc30321102ac262b9d55cfe8a499e:passed:20200617-144644:0.254738081
T_0697dts_es_xch:true:passed:20200622-160456:0.053396235
T_0698ac3_dolby_surround_ex:true-true-true:passed:20200622-173931:0.176724871
T_0699default_track_forced_off_vs_default_by_type:fe1dbb4e0063dfa6eaf6fee00a3bdf92-false-fe1dbb4e0063dfa6eaf6fee00a3bdf92-false-83fa1b735d9d8d4da3fce6a2ed830890-true:passed:20200629-201706:0.313314076
T_0700X_usf:987a78f08d6f573a7976f7fd119d99e5-46001697d31d3a435ac65008cd37ea5a:passed:20200712-180338:0.092373405
T_0701subtitles_duration_rounding:6c25f4009ead7c04bbbe9984edd2390d:passed:20200801-150217:0.047938163
T_0702block_addition_mapping:4076598f98e431d4d2bb3f1cb12090dd-2a1d4bea7e2c0c4be7b14208d4d5ec14:passed:20200801-175839:1.382622914
T_0703bcp47_mkvmerge_tracks:dc7c64a464384ff98420f2eca5e87e8b-ok-6e904bae2c57129de6d6838c9e9afb96-ok-0e73a238cac2441dcd9153901126e799-ok-02c68c87eb4a83b3e021a794a7a1020a-ok-1c3ad824680138143124d55b6463bcf2-ok-499343afe153be4cd75709b0759e1e80-ok-e6dff45eff3d2367ed89d5c7edb49e9f-ok-5cbd82e6cc7ae2eec0a7bda65e44fdd9-ok-c512ab13568e6aa9a9f08191bb11093c-ok-187045b631ee33e2d4dd1fb9c77e3a72-ok-ok-982cf0b468a003173448a62a9c78cc67-ok-fb556cbdc8f164a3054f165afab08ecf-ok-54b3a794e134ab527e7deec79381250f-ok-c8c2d8791a4dadf3e8ac257f7def880c-ok-982cf0b468a003173448a62a9c78cc67-ok-0a9f1ee0dc78b0614604f04bd2594f59-ok-e6dff45eff3d2367ed89d5c7edb49e9f-ab5ce23aec0dc6cf4400045b30b35fa5-ok-e6dff45eff3d2367ed89d5c7edb49e9f-e8536fbea75171f312baa1c7986c243d-ok-e6dff45eff3d2367ed89d5c7edb49e9f-ab5ce23aec0dc6cf4400045b30b35fa5-ok-e6dff45eff3d2367ed89d5c7edb49e9f-ab5ce23aec0dc6cf4400045b30b35fa5-ok-e6dff45eff3d2367ed89d5c7edb49e9f-d7948109dc9da882e6775e4e72ba567f-ok-e6dff45eff3d2367ed89d5c7edb49e9f-d7948109dc9da882e6775e4e72ba567f-ok:passed:20200818-174121:10.476005861
T_0704bcp47_mkvmerge_chapters:01e84c07c7a85b189b1294860afbcb27-ok-954ea94b409c07391491256d439d4590-ok-826079ea3f9434c9814f674d72231fb6-ok-6dd9d0f6521833d08c1490f8b0dfc3fb-ok-6dd9d0f6521833d08c1490f8b0dfc3fb-ok-6dd9d0f6521833d08c1490f8b0dfc3fb-ok-67f15e1aeb77fa457efdebb6be1eb560-ok-93759c06e06ead4bb62dd672967e0d21-ok-a9a0947a3097fe3ff4e2ecf1ec0d8e3a-ok-6dd9d0f6521833d08c1490f8b0dfc3fb-ok-6dd9d0f6521833d08c1490f8b0dfc3fb-ok-6dd9d0f6521833d08c1490f8b0dfc3fb-ok:passed:20200818-180751:1.70604079
T_0705bcp47_propedit_language_ietf:dc7c64a464384ff98420f2eca5e87e8b-und+und+ok+ger+de_CH+ok+ger+pt_BR+ok+ger++ok+spa+es_MX+ok+eng++ok:passed:20200822-114509:0.769998857
T_0706bcp47_mkvmerge_tracks_disable_language_ietf:d5dfbb70da750736cff94c1945ab01aa-ok-dc7c64a464384ff98420f2eca5e87e8b-ok-83fed3b922cdb6f1cb3362dbe096b88a-ok-6e904bae2c57129de6d6838c9e9afb96-83fed3b922cdb6f1cb3362dbe096b88a-899ff9ba25cc7d12b9d6077922ed39ab-ok-ok-ok-d5dfbb70da750736cff94c1945ab01aa-ok-dc7c64a464384ff98420f2eca5e87e8b-ok-83fed3b922cdb6f1cb3362dbe096b88a-ok-6e904bae2c57129de6d6838c9e9afb96-83fed3b922cdb6f1cb3362dbe096b88a-899ff9ba25cc7d12b9d6077922ed39ab-ok-ok-ok:passed:20200829-101345:1.381911961
T_0707bcp47_mkvmerge_chapters_disable_language_ietf:905b75aed1d9c80acc39d476190665e6-ok-49b05882ebdd10574e24e65330a93b44-ok-49b05882ebdd10574e24e65330a93b44-ok-6cff40e63b28d800dbf64de165c7bc7e-ok-6cff40e63b28d800dbf64de165c7bc7e-ok-6cff40e63b28d800dbf64de165c7bc7e-ok-c83c940745a53dc5037e317681d643c6-ok-b3acac493003f02585fe1dc948b63a61-ok-b3acac493003f02585fe1dc948b63a61-ok-6cff40e63b28d800dbf64de165c7bc7e-ok-905b75aed1d9c80acc39d476190665e6-ok-49b05882ebdd10574e24e65330a93b44-ok-49b05882ebdd10574e24e65330a93b44-ok-6cff40e63b28d800dbf64de165c7bc7e-ok-6cff40e63b28d800dbf64de165c7bc7e-ok-6cff40e63b28d800dbf64de165c7bc7e-ok-c83c940745a53dc5037e317681d643c6-ok-b3acac493003f02585fe1dc948b63a61-ok-b3acac493003f02585fe1dc948b63a61-ok-6cff40e63b28d800dbf64de165c7bc7e-ok:passed:20200829-101752:2.741116126
T_0708bcp47_propedit_language_ietf_disable_language_ietf:dc7c64a464384ff98420f2eca5e87e8b-und+und+ok+ger+und+ok+ger+pt_BR+ok+spa+pt_BR+ok+eng+pt_BR+ok+eng++ok:passed:20200829-103838:0.624164037
T_0709bcp47_mkvmerge_tags:a6bb252a9b9961053939bbd8ec8bd48d:passed:20200903-234135:0.062179977
T_0710fuzzying:ok-ok-ok-ok-ok-ok-ok-ok-ok-ok:passed:20200921-133156:0.530508225
T_0711av1_last_frame_duration_when_appending:591d74f3fc65224f185341989c28462f-8fe2ffd0f0dd7bd4749753518c839362:passed:20201001-124823:0.252649168
T_0712info_use_after_free_issue2989:26a53f158c80a4e6b3355470f1ecae63-3a0db59e3b6bba3f987d5779ff93082c:passed:20210108-120314:0.073799314
T_0713mp4_avc_with_empty_avcc:6eb36690c83aaf12d7fedb2fb27251d3:passed:20210108-120742:0.346481371
T_0714avi_video_aspect_ratio:41bb49765baada6ed352725cb3e23c64-4331bdc2bccdb8b1fb2f753eb567bfc3:passed:20210110-144940:0.247513638
T_0715byte_swapped_ac3:30a10b9a5f855cb1a7fb93d006a168da:passed:20210207-115041:0.078944156
T_0716X_hevc_parameter_sets_before_first_frame_differ_from_codecprivate:500a2ece86b5560e55806934d2bccce1:passed:20210218-194923:0.042570082
T_0717bluray_identification:1678ca6001492a7dff112db2eb5171b9-6124413e5e9a962e669d2530b9c1faa0:passed:20210219-160953:0.501332702
T_0718non_ascii_characters_in_file_names:3196f15910df0982dada1649dd45aac0-607037137181610f5922663b38a9d142-7535de2c43cbc270e2443220acb401eb-2a041e9b321d9271a5e8a3e612689995-5e62e9bfbe8c2db593a1ec72fcdc8db2-572c866454201661b93fc709ed349881-71b4ca14b657f09250642b4a07860e59-7535de2c43cbc270e2443220acb401eb-32751831418847d69442ffd5edb2103e-5e62e9bfbe8c2db593a1ec72fcdc8db2:passed:20210219-161442:0.534302838
T_0719aac_loas_channel_config_13:e7e8edba078664b13e6ff4cc29fd0b70-true-07c361c2b8f5f90438392c58ccfbd227-true:passed:20210405-210312:0.222922264
T_0720empty_srt_files:9c2b2106b5394af5fd336cfda901a68a-9c2b2106b5394af5fd336cfda901a68a:passed:20210517-230235:0.097003191
T_0721mutli_chapter_language:588a36a3a5da82f2d92d48ed38edbfa6-5e62e9bfbe8c2db593a1ec72fcdc8db2-efc6271cb5e8d18d8de3d2628fb27b7f:passed:20210527-192038:0.18844451
T_0722simple_chapters_nanosecond_precision:e64af402ea4de35f4fec90f336a8bc5e:passed:20210528-211113:0.050027205
T_0723hevc_dolby_vision_annex_b:1e15918c83ba191a9762ca277f7a7d2d-9a2fff49676632524f14e875f283f0ed-4a274021806a5245e28b05d3c9db23ce-d25654002db3463c706324f41f74a1e0-54b1326773393c5df2270da2f5ac530a:passed:20210602-123548:0.926318546
T_0724webvtt_flexible_timestamp_formats:9456edd8ff8e3ba2345647aae759bad7:passed:20210619-105804:0.046295834
T_0725hevc_invalid_vps:13630ef756a0e27ad1207cbecb8825ed-1e564e05bc77b3929dcccaf17f8e8771:passed:20210715-153415:0.09220639
T_0726hevc_in_matroska_appending:608811227927f257a745aa89d5352754:passed:20210725-183245:0.317383008
T_0727chapters_ietf_language_without_639_2:5bb59d606f3a9ab521d95f13e855925d-5bb59d606f3a9ab521d95f13e855925d:passed:20210801-145831:0.051880945
T_0728chapters_keep_languages_unique:31b8c6abbc5f2912c0adfcddc1f95d80:passed:20210801-150405:0.0
T_0729ssa_ass_appending_and_frame_numbers:e6ef93009531c913d960c234423d6ae7:passed:20210804-152918:0.063901758
T_0730track_selection_by_language_matching:5053f20c109b59efa21b2618e9bb03d7-true-5053f20c109b59efa21b2618e9bb03d7-true-18fabe55311203fa757e304bbcdccdb4-true-e166f6bf18f6f6b02dacacb4b2f97620-true-dea281b8d4dbe50c6b032816b151e734-true-e1f47d723975ecf7c143f2ca043f3a5f-true-f3ede38adfd3fc48fe7533e637d891d8-true-5053f20c109b59efa21b2618e9bb03d7-true-e1f47d723975ecf7c143f2ca043f3a5f-true:passed:20210829-170532:0.220058809
T_0731hevc_es_wrong_extension_detected_as_dts:be31f72920913b788d89587c073cdb4c-ac521eb2a5812c7fba4461e6e2ab1566:passed:20210904-150154:0.033101906
T_0732eac3_bsid_12:59d023fa8f3195b2a74c884448b8816d:passed:20211010-164202:0.01791851
T_0733issue_3246_vobsub_id_line_language_dash_dash:d1a77d69529696b6f6a524e314c71ba5:passed:20211219-110320:0.381696633
T_0734legacy_language_code_fallback_via_extlang_prefix:ed1af1ec90341b40a97910f0703cc028-sgn+chi-c647f5e5b9df4313f67866b961e4e412-chi-71e508b9ade4ab35782414a054f5b06a-chi-499343afe153be4cd75709b0759e1e80-chi+und:passed:20220323-225106:0.287006934
T_0735normalize_language_ietf_tracks:3290c7c7ba556d45d29fd6888b1d1b8c-ok-e56a8602eb49154d74f4413b76300c41-ok-e332d794320d453e3a48e7d13a89a968-ok:passed:20220327-103026:0.315131033
T_0736normalize_language_ietf_chapters:8c891224c40c8942b9d1418b57f84406-ok-fb30815fe254a3e277e7c97caa347357-ok-432dbd086c123ba310e1d4a19bd1426b-ok:passed:20220327-103029:0.173048279
T_0737normalize_language_ietf_tags:619a8d3dd0386f8812784f5b79630133-ok-5e145c4965e9c800dbc2bce4f620c080-ok-b344ee95e1dbb94d0f8dbaf773cc5a43-ok:passed:20220327-103814:0.178980995
T_0738propedit_normalize_language_ietf_tracks:c580cf7aa3d4a234cc7acf3a26b825ab-56fb519813768e87f4cb7877b63becb4-ok-c580cf7aa3d4a234cc7acf3a26b825ab-4cebb7da7b2fcc46324dbcaf16d91b56-ok-c580cf7aa3d4a234cc7acf3a26b825ab-35333390f55fdd32632b8f29376bf824-ok:passed:20220327-114045:0.365823403
T_0739propedit_normalize_language_ietf_chapters:5e62e9bfbe8c2db593a1ec72fcdc8db2-6be77842b84c488592100dbc73fc10fd-ok-5e62e9bfbe8c2db593a1ec72fcdc8db2-2b77dbe142a5039335e2d17053c7d99e-ok-5e62e9bfbe8c2db593a1ec72fcdc8db2-f8d76f517dcf1483d21094c7a058e80a-ok:passed:20220327-114610:0.353790859
T_0740propedit_normalize_language_ietf_tags:fd550a1fe0d3d3241fe09e0254d5c2e3-4f4e77a6bd17d50869bc3bd1324009eb-ok-fd550a1fe0d3d3241fe09e0254d5c2e3-3f392c71cb0eb3fc72daf0dfa83c9be5-ok-fd550a1fe0d3d3241fe09e0254d5c2e3-35ca7dd26867a07614559c6eaeaafb8f-ok:passed:20220327-115423:0.36762433
T_0741ui_locale_zh_SG:cae399a6b256240c16cd4710530d9cbe-399cd00f7f8a16f553c448c97b560a70:passed:20220406-214314:0.064780497
T_0742keep_color_properties:60183b9e66ae4d18e1a380ce768923ff-d158d69f36d54a8008d990a9dc01bd58:passed:20220515-133410:0.065128906
T_0743propedit_video_color_attributes_old_names:1cac47a8007706482ac6787969e2b5a3+40a07b7f9789f785a2502f91b8c377e7+72574733a63bca9d10a40d5e8288e579+07f96345418ee8f43dbb4df5eab956b6-ed4a04e5d0ef26a4a7ce2ec941f0e57f+6a01883a92688c9e3f116bd680ea9912+addaf377789462e93dffd62f0b9650e7+f60721daad1837291fb4b1e615dcb280:passed:20220709-111335:0.656156337
T_0744hevc_first_unspec_nalus_after_one_mb_of_data:30089e8ff6cfd6a39e7bb6483a1c7fc5:passed:20220709-115511:0.27140422
T_0745av1_single_frame:ceea937c40c05d782b7d023281e57b65:passed:20220730-122150:0.044258962
T_0746ogg_unknown_track_and_kate_missing_headers:447fb083fccb33cc07db61a7f3925ad6:passed:20220904-153425:0.031062254
T_0747reversed_attachment_selection:ok-67de61ddef39f3a39fbf68136783b63b-ok-b5bc906a30ca7b969571d29b235cf80f-ok:passed:20221101-125728:0.367793332
T_0748doc_type_version_handler_create_void_in_ebml_head:4692b2494f3ab58b5e9c09e1ea9ba8c2-5f1d38ff267271552b0a53fdffc994d6:passed:20221102-180257:0.230079273
T_0749X_vobsub_without_codecprivate:50fb1ec888776b1b7cda6ecc5cac8936+b666765e7db59162256a8af1991a5efa-4e25c761f62bbd54e458dd23a37f82b4+9feab6da4f35c12db7503a1eb6b26b33-2739f5e13010633460951dc33c7b6ed9+9b7ea88ef92228de314af75be9bb91b0:passed:20221103-131136:0.318895022
T_0750issue_3466_hevc_in_flv:ok-fbd8f221f044d42ea392b57a2159ee88:passed:20230101-182204:0.172387598
T_0751dts_in_wav_with_dts_file_name_extension:ok-49b389fa521265825142d389b2a6678a:passed:20230106-230933:0.171704438
T_0752vobsub_identification_on_sub_file:eafbe5ed57d16dd7bb9945322d567da7-eafbe5ed57d16dd7bb9945322d567da7:passed:20230228-230228:0.580982711
T_0753webm_block_addition_id_4:fadd12075fe7aa25591449d1ce066cb6-0418881a897d1525e378047185164892-5ace77d2713563a4d08c011254ac38dd-673cd1b61cf03bd21a063d155bc254a0:passed:20230408-172031:0.262921477
T_0754ac3_with_garbage_0x1001:fdb95953eac0ed2a023a2e3f01d80f4a-026de66551adfdec19a1648fdb3bac33:passed:20230408-195832:0.130427241
T_0755mp4_title:3976d821c36a284f739efa934fec78b0-86e02965061dfdba28df55dd6e5aa302-88cc82a92e465dd7f09812b93f2fc7e2:passed:20230410-162736:0.478663415
T_0756cropping_in_json_output_if_values_0:60d2ddc05749ea3b581ee68804270d06-ok:passed:20230504-012817:0.17246505
T_0757av1_overwriting_aspect_ratio:0[4254x815-4254x815-1212x2424-1760x352-3200x352]-1[3520x352-3520x352-1212x2424-1760x352-3200x352]-2[6400x352-6400x352-1212x2424-1760x352-3200x352]:passed:20230505-142751:3.517551664
T_0758av1_dovi_obu:c3023fcac7964d45bd849e722dc7ce54-c283694adcd2f07b7576f4cf4a7c1e3b:passed:20230809-193947:0.158531278
T_0759av1_dovi_ivf:60b7d11a6ad43340c829fd09e644ff0c-a1cf5c84b20fc6616a5f3a6caf9c0efe:passed:20230812-100011:0.158097467
T_0760dts_starts_with_exss:1994bc8466969d4cabae3b6e013d1bdb:passed:20230819-150332:0.070664357
T_0761hevc_dolby_vision_dual_layer_single_track_annex_b:4a40b17c0d60a1c82c109975c0ed6e4e-ad388b3ff1208d5461035512cbfe16dc:passed:20231120-111950:0.243135231
T_0762dovi_combining_bl_and_el:880014a766cf6b5929cf180bea71d046-2eeed24f6b3e3f2d6da0e8d25896089b-88193925316d397c23c6a3a6cb2ab740-ef854e7bae7c85ad46b1a0d71d09d3fc:passed:20231129-202129:0.387596229
T_0763vp9_alpha_channel_data:ac329c9d810d9b19fb3ffcde6f12af2a-OK:passed:20231203-190856:0.059109676
T_0764ui_locale_be_BY:a44c54eadfb4c8fbdc104b75aa1de1c1-72b98d331b58a0f95e10159fca191b52:passed:20240120-191944:0.043782405
T_0765ffmpeg_metadata_chapters:f16630c4019413c98b75b959a5697391-6b2b843310e80367b5fe5aaa8a5d51c4:passed:20240310-145016:0.047790171
T_0766ui_locale_nb_NO:6e0054bcf8d381306adc9d4d212d1f6a-5a0be94aab291615f8ebd47f887e6eba:passed:20240422-215240:0.044197325
